# Filter transmission for J-PLUS filter J0660
# Authors: Jesus Varela (jvarela@cefca.es), Toni Marin (amarin@cefca.es)
# Date: 2015-05-19
# wl[A]   T[ccd]    T[ccd+filter+atm]
6400    0.000     0.000 
6401    0.000     0.000 
6402    0.000     0.000 
6403    0.000     0.000 
6404    0.000     0.000 
6405    0.000     0.000 
6406    0.000     0.000 
6407    0.000     0.000 
6408    0.000     0.000 
6409    0.000     0.000 
6410    0.000     0.000 
6411    0.000     0.000 
6412    0.000     0.000 
6413    0.000     0.000 
6414    0.000     0.000 
6415    0.000     0.000 
6416    0.000     0.000 
6417    0.000     0.000 
6418    0.000     0.000 
6419    0.000     0.000 
6420    0.000     0.000 
6421    0.000     0.000 
6422    0.000     0.000 
6423    0.000     0.000 
6424    0.000     0.000 
6425    0.000     0.000 
6426    0.000     0.000 
6427    0.000     0.000 
6428    0.000     0.000 
6429    0.000     0.000 
6430    0.000     0.000 
6431    0.000     0.000 
6432    0.000     0.000 
6433    0.000     0.000 
6434    0.000     0.000 
6435    0.000     0.000 
6436    0.000     0.000 
6437    0.000     0.000 
6438    0.000     0.000 
6439    0.000     0.000 
6440    0.000     0.000 
6441    0.000     0.000 
6442    0.000     0.000 
6443    0.000     0.000 
6444    0.000     0.000 
6445    0.000     0.000 
6446    0.000     0.000 
6447    0.000     0.000 
6448    0.000     0.000 
6449    0.000     0.000 
6450    0.000     0.000 
6451    0.000     0.000 
6452    0.000     0.000 
6453    0.000     0.000 
6454    0.000     0.000 
6455    0.000     0.000 
6456    0.000     0.000 
6457    0.000     0.000 
6458    0.000     0.000 
6459    0.000     0.000 
6460    0.000     0.000 
6461    0.000     0.000 
6462    0.000     0.000 
6463    0.000     0.000 
6464    0.000     0.000 
6465    0.000     0.000 
6466    0.000     0.000 
6467    0.000     0.000 
6468    0.000     0.000 
6469    0.000     0.000 
6470    0.000     0.000 
6471    0.000     0.000 
6472    0.000     0.000 
6473    0.000     0.000 
6474    0.000     0.000 
6475    0.000     0.000 
6476    0.000     0.000 
6477    0.000     0.000 
6478    0.000     0.000 
6479    0.000     0.000 
6480    0.000     0.000 
6481    0.000     0.000 
6482    0.000     0.000 
6483    0.000     0.000 
6484    0.000     0.000 
6485    0.000     0.000 
6486    0.000     0.000 
6487    0.000     0.000 
6488    0.001     0.000 
6489    0.001     0.001 
6490    0.001     0.001 
6491    0.001     0.001 
6492    0.001     0.001 
6493    0.001     0.001 
6494    0.001     0.001 
6495    0.001     0.001 
6496    0.001     0.001 
6497    0.001     0.001 
6498    0.002     0.001 
6499    0.002     0.002 
6500    0.002     0.002 
6501    0.002     0.002 
6502    0.003     0.002 
6503    0.003     0.003 
6504    0.003     0.003 
6505    0.004     0.003 
6506    0.004     0.004 
6507    0.005     0.005 
6508    0.006     0.006 
6509    0.007     0.007 
6510    0.009     0.008 
6511    0.010     0.009 
6512    0.012     0.011 
6513    0.015     0.013 
6514    0.017     0.016 
6515    0.021     0.019 
6516    0.025     0.023 
6517    0.031     0.028 
6518    0.037     0.034 
6519    0.046     0.041 
6520    0.056     0.051 
6521    0.069     0.063 
6522    0.085     0.077 
6523    0.104     0.095 
6524    0.129     0.117 
6525    0.160     0.146 
6526    0.198     0.179 
6527    0.241     0.219 
6528    0.290     0.263 
6529    0.344     0.312 
6530    0.406     0.369 
6531    0.472     0.429 
6532    0.539     0.489 
6533    0.606     0.550 
6534    0.672     0.611 
6535    0.732     0.665 
6536    0.784     0.712 
6537    0.826     0.750 
6538    0.862     0.783 
6539    0.892     0.811 
6540    0.914     0.830 
6541    0.928     0.843 
6542    0.938     0.853 
6543    0.945     0.859 
6544    0.951     0.864 
6545    0.952     0.865 
6546    0.953     0.866 
6547    0.953     0.867 
6548    0.954     0.868 
6549    0.953     0.867 
6550    0.955     0.869 
6551    0.955     0.868 
6552    0.955     0.868 
6553    0.955     0.868 
6554    0.957     0.871 
6555    0.960     0.873 
6556    0.961     0.874 
6557    0.961     0.874 
6558    0.960     0.873 
6559    0.961     0.874 
6560    0.961     0.874 
6561    0.962     0.875 
6562    0.962     0.875 
6563    0.963     0.877 
6564    0.961     0.875 
6565    0.959     0.873 
6566    0.959     0.873 
6567    0.959     0.873 
6568    0.960     0.874 
6569    0.960     0.874 
6570    0.958     0.873 
6571    0.959     0.873 
6572    0.957     0.872 
6573    0.959     0.873 
6574    0.957     0.872 
6575    0.957     0.872 
6576    0.958     0.873 
6577    0.958     0.872 
6578    0.959     0.874 
6579    0.959     0.874 
6580    0.959     0.874 
6581    0.959     0.874 
6582    0.959     0.874 
6583    0.959     0.874 
6584    0.958     0.873 
6585    0.959     0.874 
6586    0.959     0.874 
6587    0.960     0.875 
6588    0.961     0.876 
6589    0.961     0.876 
6590    0.960     0.875 
6591    0.961     0.876 
6592    0.960     0.876 
6593    0.960     0.875 
6594    0.961     0.876 
6595    0.963     0.877 
6596    0.963     0.878 
6597    0.962     0.877 
6598    0.961     0.876 
6599    0.961     0.876 
6600    0.961     0.876 
6601    0.962     0.878 
6602    0.962     0.877 
6603    0.961     0.876 
6604    0.961     0.876 
6605    0.960     0.875 
6606    0.961     0.877 
6607    0.961     0.876 
6608    0.961     0.876 
6609    0.959     0.875 
6610    0.960     0.875 
6611    0.960     0.875 
6612    0.960     0.875 
6613    0.958     0.874 
6614    0.958     0.873 
6615    0.959     0.875 
6616    0.959     0.874 
6617    0.956     0.872 
6618    0.957     0.872 
6619    0.956     0.871 
6620    0.954     0.870 
6621    0.953     0.869 
6622    0.954     0.869 
6623    0.954     0.869 
6624    0.953     0.868 
6625    0.952     0.868 
6626    0.951     0.867 
6627    0.950     0.866 
6628    0.952     0.867 
6629    0.952     0.867 
6630    0.952     0.868 
6631    0.951     0.867 
6632    0.953     0.868 
6633    0.953     0.869 
6634    0.954     0.869 
6635    0.955     0.870 
6636    0.954     0.869 
6637    0.956     0.871 
6638    0.956     0.871 
6639    0.958     0.873 
6640    0.958     0.873 
6641    0.958     0.873 
6642    0.958     0.873 
6643    0.958     0.873 
6644    0.959     0.873 
6645    0.958     0.873 
6646    0.958     0.873 
6647    0.958     0.872 
6648    0.958     0.872 
6649    0.957     0.871 
6650    0.955     0.869 
6651    0.953     0.868 
6652    0.953     0.868 
6653    0.951     0.865 
6654    0.950     0.865 
6655    0.949     0.864 
6656    0.949     0.864 
6657    0.949     0.863 
6658    0.948     0.863 
6659    0.948     0.863 
6660    0.948     0.863 
6661    0.950     0.865 
6662    0.951     0.865 
6663    0.951     0.866 
6664    0.951     0.865 
6665    0.950     0.864 
6666    0.948     0.862 
6667    0.943     0.858 
6668    0.933     0.849 
6669    0.918     0.835 
6670    0.894     0.813 
6671    0.861     0.784 
6672    0.820     0.746 
6673    0.774     0.704 
6674    0.717     0.652 
6675    0.651     0.592 
6676    0.580     0.528 
6677    0.507     0.462 
6678    0.439     0.400 
6679    0.373     0.339 
6680    0.311     0.283 
6681    0.258     0.235 
6682    0.213     0.193 
6683    0.175     0.159 
6684    0.142     0.129 
6685    0.114     0.104 
6686    0.093     0.085 
6687    0.077     0.070 
6688    0.063     0.057 
6689    0.052     0.047 
6690    0.043     0.039 
6691    0.036     0.033 
6692    0.030     0.027 
6693    0.025     0.023 
6694    0.021     0.019 
6695    0.018     0.016 
6696    0.015     0.014 
6697    0.013     0.012 
6698    0.011     0.010 
6699    0.010     0.009 
6700    0.009     0.008 
6701    0.007     0.007 
6702    0.006     0.006 
6703    0.006     0.005 
6704    0.005     0.005 
6705    0.005     0.004 
6706    0.004     0.004 
6707    0.004     0.003 
6708    0.003     0.003 
6709    0.003     0.003 
6710    0.003     0.002 
6711    0.002     0.002 
6712    0.002     0.002 
6713    0.002     0.002 
6714    0.002     0.002 
6715    0.002     0.002 
6716    0.002     0.002 
6717    0.002     0.001 
6718    0.001     0.001 
6719    0.001     0.001 
6720    0.001     0.001 
6721    0.001     0.001 
6722    0.001     0.001 
6723    0.001     0.001 
6724    0.001     0.001 
6725    0.001     0.001 
6726    0.001     0.001 
6727    0.001     0.001 
6728    0.001     0.001 
6729    0.001     0.001 
6730    0.001     0.001 
6731    0.001     0.001 
6732    0.001     0.001 
6733    0.001     0.001 
6734    0.001     0.001 
6735    0.001     0.001 
6736    0.001     0.001 
6737    0.001     0.000 
6738    0.001     0.000 
6739    0.001     0.000 
6740    0.000     0.000 
6741    0.000     0.000 
6742    0.000     0.000 
6743    0.000     0.000 
6744    0.000     0.000 
6745    0.000     0.000 
6746    0.000     0.000 
6747    0.000     0.000 
6748    0.000     0.000 
6749    0.000     0.000 
6750    0.000     0.000 
6751    0.000     0.000 
6752    0.000     0.000 
6753    0.000     0.000 
6754    0.000     0.000 
6755    0.000     0.000 
6756    0.000     0.000 
6757    0.000     0.000 
6758    0.000     0.000 
6759    0.000     0.000 
6760    0.000     0.000 
6761    0.000     0.000 
6762    0.000     0.000 
6763    0.000     0.000 
6764    0.000     0.000 
6765    0.000     0.000 
6766    0.000     0.000 
6767    0.000     0.000 
6768    0.000     0.000 
6769    0.000     0.000 
6770    0.000     0.000 
6771    0.000     0.000 
6772    0.000     0.000 
6773    0.000     0.000 
6774    0.000     0.000 
6775    0.000     0.000 
6776    0.000     0.000 
6777    0.000     0.000 
6778    0.000     0.000 
6779    0.000     0.000 
6780    0.000     0.000 
6781    0.000     0.000 
6782    0.000     0.000 
6783    0.000     0.000 
6784    0.000     0.000 
6785    0.000     0.000 
6786    0.000     0.000 
6787    0.000     0.000 
6788    0.000     0.000 
6789    0.000     0.000 
6790    0.000     0.000 
6791    0.000     0.000 
6792    0.000     0.000 
6793    0.000     0.000 
6794    0.000     0.000 
6795    0.000     0.000 
6796    0.000     0.000 
6797    0.000     0.000 
6798    0.000     0.000 
6799    0.000     0.000 
6800    0.000     0.000 
