# Filter transmission for J-PLUS filter zSDSS
# Authors: Jesus Varela (jvarela@cefca.es), Toni Marin (amarin@cefca.es)
# Date: 2015-05-19
# wl[A]   T[ccd]    T[ccd+filter+atm]
7402    0.000     0.000 
7403    0.000     0.000 
7404    0.000     0.000 
7405    0.000     0.000 
7406    0.000     0.000 
7407    0.000     0.000 
7408    0.000     0.000 
7409    0.000     0.000 
7410    0.000     0.000 
7411    0.000     0.000 
7412    0.000     0.000 
7413    0.000     0.000 
7414    0.000     0.000 
7415    0.000     0.000 
7416    0.000     0.000 
7417    0.000     0.000 
7418    0.000     0.000 
7419    0.000     0.000 
7420    0.000     0.000 
7421    0.000     0.000 
7422    0.000     0.000 
7423    0.000     0.000 
7424    0.000     0.000 
7425    0.000     0.000 
7426    0.000     0.000 
7427    0.000     0.000 
7428    0.000     0.000 
7429    0.000     0.000 
7430    0.000     0.000 
7431    0.000     0.000 
7432    0.000     0.000 
7433    0.000     0.000 
7434    0.000     0.000 
7435    0.000     0.000 
7436    0.000     0.000 
7437    0.000     0.000 
7438    0.000     0.000 
7439    0.000     0.000 
7440    0.000     0.000 
7441    0.000     0.000 
7442    0.000     0.000 
7443    0.000     0.000 
7444    0.000     0.000 
7445    0.000     0.000 
7446    0.000     0.000 
7447    0.000     0.000 
7448    0.000     0.000 
7449    0.000     0.000 
7450    0.000     0.000 
7451    0.000     0.000 
7452    0.000     0.000 
7453    0.000     0.000 
7454    0.000     0.000 
7455    0.000     0.000 
7456    0.000     0.000 
7457    0.000     0.000 
7458    0.000     0.000 
7459    0.000     0.000 
7460    0.000     0.000 
7461    0.000     0.000 
7462    0.000     0.000 
7463    0.000     0.000 
7464    0.000     0.000 
7465    0.000     0.000 
7466    0.000     0.000 
7467    0.000     0.000 
7468    0.000     0.000 
7469    0.000     0.000 
7470    0.000     0.000 
7471    0.000     0.000 
7472    0.000     0.000 
7473    0.000     0.000 
7474    0.000     0.000 
7475    0.000     0.000 
7476    0.000     0.000 
7477    0.000     0.000 
7478    0.000     0.000 
7479    0.000     0.000 
7480    0.000     0.000 
7481    0.000     0.000 
7482    0.000     0.000 
7483    0.000     0.000 
7484    0.000     0.000 
7485    0.000     0.000 
7486    0.000     0.000 
7487    0.000     0.000 
7488    0.000     0.000 
7489    0.000     0.000 
7490    0.000     0.000 
7491    0.000     0.000 
7492    0.000     0.000 
7493    0.000     0.000 
7494    0.000     0.000 
7495    0.000     0.000 
7496    0.000     0.000 
7497    0.000     0.000 
7498    0.000     0.000 
7499    0.000     0.000 
7500    0.000     0.000 
7501    0.000     0.000 
7502    0.000     0.000 
7503    0.000     0.000 
7504    0.000     0.000 
7505    0.000     0.000 
7506    0.000     0.000 
7507    0.000     0.000 
7508    0.000     0.000 
7509    0.000     0.000 
7510    0.000     0.000 
7511    0.000     0.000 
7512    0.000     0.000 
7513    0.000     0.000 
7514    0.000     0.000 
7515    0.000     0.000 
7516    0.000     0.000 
7517    0.000     0.000 
7518    0.000     0.000 
7519    0.000     0.000 
7520    0.000     0.000 
7521    0.000     0.000 
7522    0.000     0.000 
7523    0.000     0.000 
7524    0.000     0.000 
7525    0.000     0.000 
7526    0.000     0.000 
7527    0.000     0.000 
7528    0.000     0.000 
7529    0.000     0.000 
7530    0.000     0.000 
7531    0.000     0.000 
7532    0.000     0.000 
7533    0.000     0.000 
7534    0.000     0.000 
7535    0.000     0.000 
7536    0.000     0.000 
7537    0.000     0.000 
7538    0.000     0.000 
7539    0.000     0.000 
7540    0.000     0.000 
7541    0.000     0.000 
7542    0.000     0.000 
7543    0.000     0.000 
7544    0.000     0.000 
7545    0.000     0.000 
7546    0.000     0.000 
7547    0.000     0.000 
7548    0.000     0.000 
7549    0.000     0.000 
7550    0.000     0.000 
7551    0.000     0.000 
7552    0.000     0.000 
7553    0.000     0.000 
7554    0.000     0.000 
7555    0.000     0.000 
7556    0.000     0.000 
7557    0.000     0.000 
7558    0.000     0.000 
7559    0.000     0.000 
7560    0.000     0.000 
7561    0.000     0.000 
7562    0.000     0.000 
7563    0.000     0.000 
7564    0.000     0.000 
7565    0.000     0.000 
7566    0.000     0.000 
7567    0.000     0.000 
7568    0.000     0.000 
7569    0.000     0.000 
7570    0.000     0.000 
7571    0.000     0.000 
7572    0.000     0.000 
7573    0.000     0.000 
7574    0.000     0.000 
7575    0.000     0.000 
7576    0.000     0.000 
7577    0.000     0.000 
7578    0.000     0.000 
7579    0.000     0.000 
7580    0.000     0.000 
7581    0.000     0.000 
7582    0.000     0.000 
7583    0.000     0.000 
7584    0.000     0.000 
7585    0.000     0.000 
7586    0.000     0.000 
7587    0.000     0.000 
7588    0.000     0.000 
7589    0.000     0.000 
7590    0.000     0.000 
7591    0.000     0.000 
7592    0.000     0.000 
7593    0.000     0.000 
7594    0.000     0.000 
7595    0.000     0.000 
7596    0.000     0.000 
7597    0.000     0.000 
7598    0.000     0.000 
7599    0.000     0.000 
7600    0.000     0.000 
7601    0.000     0.000 
7602    0.000     0.000 
7603    0.000     0.000 
7604    0.000     0.000 
7605    0.000     0.000 
7606    0.000     0.000 
7607    0.000     0.000 
7608    0.000     0.000 
7609    0.000     0.000 
7610    0.000     0.000 
7611    0.000     0.000 
7612    0.000     0.000 
7613    0.000     0.000 
7614    0.000     0.000 
7615    0.000     0.000 
7616    0.000     0.000 
7617    0.000     0.000 
7618    0.000     0.000 
7619    0.000     0.000 
7620    0.000     0.000 
7621    0.000     0.000 
7622    0.000     0.000 
7623    0.000     0.000 
7624    0.000     0.000 
7625    0.000     0.000 
7626    0.000     0.000 
7627    0.000     0.000 
7628    0.000     0.000 
7629    0.000     0.000 
7630    0.000     0.000 
7631    0.000     0.000 
7632    0.000     0.000 
7633    0.000     0.000 
7634    0.000     0.000 
7635    0.000     0.000 
7636    0.000     0.000 
7637    0.000     0.000 
7638    0.000     0.000 
7639    0.000     0.000 
7640    0.001     0.000 
7641    0.001     0.000 
7642    0.001     0.000 
7643    0.001     0.000 
7644    0.001     0.000 
7645    0.001     0.000 
7646    0.001     0.000 
7647    0.001     0.000 
7648    0.001     0.000 
7649    0.001     0.000 
7650    0.001     0.000 
7651    0.001     0.000 
7652    0.001     0.000 
7653    0.001     0.000 
7654    0.001     0.000 
7655    0.001     0.000 
7656    0.001     0.000 
7657    0.001     0.000 
7658    0.001     0.000 
7659    0.001     0.000 
7660    0.001     0.000 
7661    0.001     0.000 
7662    0.001     0.000 
7663    0.001     0.000 
7664    0.001     0.001 
7665    0.001     0.001 
7666    0.001     0.001 
7667    0.001     0.001 
7668    0.001     0.001 
7669    0.001     0.001 
7670    0.001     0.001 
7671    0.001     0.001 
7672    0.001     0.001 
7673    0.001     0.001 
7674    0.001     0.001 
7675    0.001     0.001 
7676    0.001     0.001 
7677    0.001     0.001 
7678    0.001     0.001 
7679    0.001     0.001 
7680    0.001     0.001 
7681    0.001     0.001 
7682    0.001     0.001 
7683    0.001     0.001 
7684    0.001     0.001 
7685    0.001     0.001 
7686    0.001     0.001 
7687    0.001     0.001 
7688    0.001     0.001 
7689    0.001     0.001 
7690    0.001     0.001 
7691    0.001     0.001 
7692    0.001     0.001 
7693    0.001     0.001 
7694    0.001     0.001 
7695    0.001     0.001 
7696    0.001     0.001 
7697    0.001     0.001 
7698    0.001     0.001 
7699    0.001     0.001 
7700    0.001     0.001 
7701    0.001     0.001 
7702    0.001     0.001 
7703    0.001     0.001 
7704    0.001     0.001 
7705    0.001     0.001 
7706    0.001     0.001 
7707    0.001     0.001 
7708    0.001     0.001 
7709    0.001     0.001 
7710    0.001     0.001 
7711    0.001     0.001 
7712    0.001     0.001 
7713    0.001     0.001 
7714    0.001     0.001 
7715    0.001     0.001 
7716    0.001     0.001 
7717    0.001     0.001 
7718    0.001     0.001 
7719    0.001     0.001 
7720    0.001     0.001 
7721    0.001     0.001 
7722    0.001     0.001 
7723    0.001     0.001 
7724    0.001     0.001 
7725    0.001     0.001 
7726    0.001     0.001 
7727    0.001     0.001 
7728    0.001     0.001 
7729    0.001     0.001 
7730    0.001     0.001 
7731    0.001     0.001 
7732    0.001     0.001 
7733    0.001     0.001 
7734    0.001     0.001 
7735    0.001     0.001 
7736    0.001     0.001 
7737    0.001     0.001 
7738    0.001     0.001 
7739    0.001     0.001 
7740    0.001     0.001 
7741    0.001     0.001 
7742    0.001     0.001 
7743    0.001     0.001 
7744    0.001     0.001 
7745    0.001     0.001 
7746    0.001     0.001 
7747    0.001     0.001 
7748    0.001     0.001 
7749    0.001     0.001 
7750    0.001     0.001 
7751    0.001     0.001 
7752    0.001     0.001 
7753    0.001     0.001 
7754    0.001     0.001 
7755    0.001     0.001 
7756    0.001     0.001 
7757    0.001     0.001 
7758    0.001     0.001 
7759    0.001     0.001 
7760    0.001     0.001 
7761    0.001     0.001 
7762    0.001     0.001 
7763    0.001     0.001 
7764    0.001     0.001 
7765    0.001     0.001 
7766    0.001     0.001 
7767    0.001     0.001 
7768    0.001     0.001 
7769    0.001     0.001 
7770    0.001     0.001 
7771    0.002     0.001 
7772    0.002     0.001 
7773    0.002     0.001 
7774    0.002     0.001 
7775    0.002     0.001 
7776    0.002     0.001 
7777    0.002     0.001 
7778    0.002     0.001 
7779    0.002     0.001 
7780    0.002     0.002 
7781    0.002     0.002 
7782    0.002     0.002 
7783    0.002     0.002 
7784    0.002     0.002 
7785    0.002     0.002 
7786    0.002     0.002 
7787    0.002     0.002 
7788    0.002     0.002 
7789    0.002     0.002 
7790    0.002     0.002 
7791    0.002     0.002 
7792    0.002     0.002 
7793    0.002     0.002 
7794    0.002     0.002 
7795    0.002     0.002 
7796    0.002     0.002 
7797    0.002     0.002 
7798    0.002     0.002 
7799    0.002     0.002 
7800    0.002     0.002 
7801    0.002     0.002 
7802    0.002     0.002 
7803    0.002     0.002 
7804    0.002     0.002 
7805    0.002     0.002 
7806    0.002     0.002 
7807    0.002     0.002 
7808    0.002     0.002 
7809    0.002     0.002 
7810    0.002     0.002 
7811    0.002     0.002 
7812    0.002     0.002 
7813    0.002     0.002 
7814    0.002     0.002 
7815    0.002     0.002 
7816    0.002     0.002 
7817    0.002     0.002 
7818    0.002     0.002 
7819    0.002     0.002 
7820    0.002     0.002 
7821    0.002     0.002 
7822    0.002     0.002 
7823    0.002     0.002 
7824    0.002     0.002 
7825    0.002     0.002 
7826    0.003     0.002 
7827    0.003     0.002 
7828    0.003     0.002 
7829    0.003     0.002 
7830    0.003     0.002 
7831    0.003     0.002 
7832    0.003     0.002 
7833    0.003     0.002 
7834    0.003     0.003 
7835    0.003     0.003 
7836    0.003     0.003 
7837    0.003     0.003 
7838    0.003     0.003 
7839    0.003     0.003 
7840    0.003     0.003 
7841    0.003     0.003 
7842    0.003     0.003 
7843    0.003     0.003 
7844    0.003     0.003 
7845    0.003     0.003 
7846    0.003     0.003 
7847    0.003     0.003 
7848    0.003     0.003 
7849    0.003     0.003 
7850    0.003     0.003 
7851    0.003     0.003 
7852    0.003     0.003 
7853    0.003     0.003 
7854    0.003     0.003 
7855    0.003     0.003 
7856    0.003     0.003 
7857    0.004     0.003 
7858    0.004     0.003 
7859    0.004     0.003 
7860    0.004     0.003 
7861    0.004     0.003 
7862    0.004     0.003 
7863    0.004     0.003 
7864    0.004     0.003 
7865    0.004     0.004 
7866    0.004     0.004 
7867    0.004     0.004 
7868    0.004     0.004 
7869    0.004     0.004 
7870    0.004     0.004 
7871    0.004     0.004 
7872    0.004     0.004 
7873    0.004     0.004 
7874    0.004     0.004 
7875    0.004     0.004 
7876    0.004     0.004 
7877    0.004     0.004 
7878    0.004     0.004 
7879    0.005     0.004 
7880    0.005     0.004 
7881    0.005     0.004 
7882    0.005     0.004 
7883    0.005     0.004 
7884    0.005     0.004 
7885    0.005     0.004 
7886    0.005     0.005 
7887    0.005     0.005 
7888    0.005     0.005 
7889    0.005     0.005 
7890    0.005     0.005 
7891    0.005     0.005 
7892    0.005     0.005 
7893    0.005     0.005 
7894    0.005     0.005 
7895    0.006     0.005 
7896    0.006     0.005 
7897    0.006     0.005 
7898    0.006     0.005 
7899    0.006     0.005 
7900    0.006     0.005 
7901    0.006     0.005 
7902    0.006     0.006 
7903    0.006     0.006 
7904    0.006     0.006 
7905    0.006     0.006 
7906    0.006     0.006 
7907    0.006     0.006 
7908    0.007     0.006 
7909    0.007     0.006 
7910    0.007     0.006 
7911    0.007     0.006 
7912    0.007     0.006 
7913    0.007     0.006 
7914    0.007     0.006 
7915    0.007     0.007 
7916    0.007     0.007 
7917    0.007     0.007 
7918    0.007     0.007 
7919    0.008     0.007 
7920    0.008     0.007 
7921    0.008     0.007 
7922    0.008     0.007 
7923    0.008     0.007 
7924    0.008     0.007 
7925    0.008     0.007 
7926    0.008     0.008 
7927    0.008     0.008 
7928    0.008     0.008 
7929    0.009     0.008 
7930    0.009     0.008 
7931    0.009     0.008 
7932    0.009     0.008 
7933    0.009     0.008 
7934    0.009     0.008 
7935    0.009     0.008 
7936    0.009     0.009 
7937    0.009     0.009 
7938    0.010     0.009 
7939    0.010     0.009 
7940    0.010     0.009 
7941    0.010     0.009 
7942    0.010     0.009 
7943    0.010     0.009 
7944    0.010     0.010 
7945    0.011     0.010 
7946    0.011     0.010 
7947    0.011     0.010 
7948    0.011     0.010 
7949    0.011     0.010 
7950    0.011     0.010 
7951    0.011     0.011 
7952    0.012     0.011 
7953    0.012     0.011 
7954    0.012     0.011 
7955    0.012     0.011 
7956    0.012     0.011 
7957    0.012     0.011 
7958    0.013     0.012 
7959    0.013     0.012 
7960    0.013     0.012 
7961    0.013     0.012 
7962    0.013     0.012 
7963    0.013     0.012 
7964    0.014     0.013 
7965    0.014     0.013 
7966    0.014     0.013 
7967    0.014     0.013 
7968    0.014     0.013 
7969    0.015     0.013 
7970    0.015     0.014 
7971    0.015     0.014 
7972    0.015     0.014 
7973    0.015     0.014 
7974    0.016     0.014 
7975    0.016     0.015 
7976    0.016     0.015 
7977    0.016     0.015 
7978    0.017     0.015 
7979    0.017     0.015 
7980    0.017     0.016 
7981    0.017     0.016 
7982    0.017     0.016 
7983    0.018     0.016 
7984    0.018     0.017 
7985    0.018     0.017 
7986    0.018     0.017 
7987    0.019     0.017 
7988    0.019     0.017 
7989    0.019     0.018 
7990    0.020     0.018 
7991    0.020     0.018 
7992    0.020     0.018 
7993    0.020     0.019 
7994    0.021     0.019 
7995    0.021     0.019 
7996    0.021     0.020 
7997    0.022     0.020 
7998    0.022     0.020 
7999    0.022     0.020 
8000    0.022     0.021 
8001    0.023     0.021 
8002    0.023     0.021 
8003    0.023     0.022 
8004    0.024     0.022 
8005    0.024     0.022 
8006    0.024     0.022 
8007    0.025     0.023 
8008    0.025     0.023 
8009    0.026     0.023 
8010    0.026     0.024 
8011    0.026     0.024 
8012    0.027     0.024 
8013    0.027     0.025 
8014    0.027     0.025 
8015    0.028     0.025 
8016    0.028     0.026 
8017    0.029     0.026 
8018    0.029     0.027 
8019    0.029     0.027 
8020    0.030     0.027 
8021    0.030     0.028 
8022    0.031     0.028 
8023    0.031     0.028 
8024    0.032     0.029 
8025    0.032     0.029 
8026    0.032     0.030 
8027    0.033     0.030 
8028    0.033     0.031 
8029    0.034     0.031 
8030    0.034     0.031 
8031    0.035     0.032 
8032    0.035     0.032 
8033    0.036     0.033 
8034    0.036     0.033 
8035    0.037     0.034 
8036    0.037     0.034 
8037    0.038     0.035 
8038    0.039     0.035 
8039    0.039     0.036 
8040    0.040     0.036 
8041    0.040     0.037 
8042    0.041     0.037 
8043    0.041     0.038 
8044    0.042     0.038 
8045    0.043     0.039 
8046    0.043     0.039 
8047    0.044     0.040 
8048    0.045     0.041 
8049    0.045     0.041 
8050    0.046     0.042 
8051    0.047     0.042 
8052    0.047     0.043 
8053    0.048     0.044 
8054    0.049     0.044 
8055    0.049     0.045 
8056    0.050     0.046 
8057    0.051     0.046 
8058    0.052     0.047 
8059    0.052     0.048 
8060    0.053     0.048 
8061    0.054     0.049 
8062    0.055     0.050 
8063    0.055     0.050 
8064    0.056     0.051 
8065    0.057     0.052 
8066    0.058     0.053 
8067    0.059     0.053 
8068    0.060     0.054 
8069    0.061     0.055 
8070    0.061     0.056 
8071    0.062     0.057 
8072    0.063     0.057 
8073    0.064     0.058 
8074    0.065     0.059 
8075    0.066     0.060 
8076    0.067     0.061 
8077    0.068     0.062 
8078    0.069     0.062 
8079    0.070     0.063 
8080    0.071     0.064 
8081    0.072     0.065 
8082    0.073     0.066 
8083    0.074     0.067 
8084    0.075     0.068 
8085    0.076     0.069 
8086    0.077     0.070 
8087    0.078     0.070 
8088    0.079     0.071 
8089    0.081     0.072 
8090    0.082     0.073 
8091    0.083     0.074 
8092    0.084     0.075 
8093    0.085     0.076 
8094    0.086     0.077 
8095    0.088     0.078 
8096    0.089     0.079 
8097    0.090     0.080 
8098    0.091     0.081 
8099    0.093     0.082 
8100    0.094     0.084 
8101    0.095     0.085 
8102    0.097     0.086 
8103    0.098     0.087 
8104    0.099     0.088 
8105    0.101     0.089 
8106    0.102     0.090 
8107    0.103     0.091 
8108    0.105     0.092 
8109    0.106     0.094 
8110    0.108     0.095 
8111    0.109     0.096 
8112    0.111     0.097 
8113    0.112     0.098 
8114    0.114     0.099 
8115    0.115     0.101 
8116    0.117     0.102 
8117    0.118     0.103 
8118    0.120     0.104 
8119    0.121     0.106 
8120    0.123     0.107 
8121    0.125     0.108 
8122    0.126     0.109 
8123    0.128     0.111 
8124    0.130     0.112 
8125    0.131     0.113 
8126    0.133     0.115 
8127    0.135     0.116 
8128    0.137     0.117 
8129    0.138     0.119 
8130    0.140     0.120 
8131    0.142     0.122 
8132    0.144     0.123 
8133    0.146     0.125 
8134    0.148     0.126 
8135    0.149     0.127 
8136    0.151     0.129 
8137    0.153     0.130 
8138    0.155     0.132 
8139    0.157     0.133 
8140    0.159     0.135 
8141    0.161     0.136 
8142    0.163     0.138 
8143    0.165     0.139 
8144    0.167     0.141 
8145    0.169     0.142 
8146    0.171     0.144 
8147    0.173     0.145 
8148    0.175     0.147 
8149    0.177     0.149 
8150    0.179     0.150 
8151    0.181     0.152 
8152    0.183     0.153 
8153    0.185     0.155 
8154    0.187     0.156 
8155    0.189     0.158 
8156    0.191     0.160 
8157    0.194     0.161 
8158    0.196     0.163 
8159    0.198     0.165 
8160    0.200     0.166 
8161    0.202     0.168 
8162    0.204     0.170 
8163    0.207     0.171 
8164    0.209     0.173 
8165    0.211     0.175 
8166    0.213     0.176 
8167    0.216     0.178 
8168    0.218     0.180 
8169    0.220     0.182 
8170    0.223     0.183 
8171    0.225     0.185 
8172    0.227     0.187 
8173    0.230     0.189 
8174    0.232     0.190 
8175    0.234     0.192 
8176    0.237     0.194 
8177    0.239     0.196 
8178    0.241     0.198 
8179    0.244     0.199 
8180    0.246     0.201 
8181    0.249     0.203 
8182    0.251     0.205 
8183    0.254     0.207 
8184    0.256     0.209 
8185    0.259     0.211 
8186    0.261     0.213 
8187    0.264     0.215 
8188    0.266     0.217 
8189    0.269     0.219 
8190    0.271     0.221 
8191    0.274     0.223 
8192    0.277     0.225 
8193    0.279     0.227 
8194    0.282     0.229 
8195    0.284     0.231 
8196    0.287     0.233 
8197    0.290     0.235 
8198    0.292     0.236 
8199    0.295     0.238 
8200    0.298     0.241 
8201    0.300     0.243 
8202    0.303     0.245 
8203    0.306     0.247 
8204    0.308     0.249 
8205    0.311     0.251 
8206    0.314     0.253 
8207    0.316     0.255 
8208    0.319     0.257 
8209    0.322     0.259 
8210    0.324     0.261 
8211    0.327     0.263 
8212    0.330     0.265 
8213    0.333     0.267 
8214    0.335     0.270 
8215    0.338     0.272 
8216    0.341     0.274 
8217    0.344     0.276 
8218    0.346     0.278 
8219    0.349     0.280 
8220    0.352     0.282 
8221    0.355     0.285 
8222    0.357     0.287 
8223    0.360     0.289 
8224    0.363     0.291 
8225    0.366     0.293 
8226    0.369     0.295 
8227    0.371     0.297 
8228    0.374     0.300 
8229    0.377     0.302 
8230    0.380     0.304 
8231    0.382     0.306 
8232    0.385     0.308 
8233    0.388     0.310 
8234    0.391     0.313 
8235    0.393     0.315 
8236    0.396     0.317 
8237    0.399     0.319 
8238    0.402     0.322 
8239    0.405     0.324 
8240    0.407     0.326 
8241    0.410     0.328 
8242    0.413     0.330 
8243    0.415     0.333 
8244    0.418     0.335 
8245    0.421     0.337 
8246    0.424     0.339 
8247    0.427     0.342 
8248    0.429     0.344 
8249    0.432     0.346 
8250    0.435     0.348 
8251    0.438     0.351 
8252    0.441     0.353 
8253    0.443     0.355 
8254    0.446     0.357 
8255    0.449     0.360 
8256    0.452     0.362 
8257    0.455     0.364 
8258    0.457     0.367 
8259    0.460     0.369 
8260    0.463     0.371 
8261    0.466     0.374 
8262    0.469     0.376 
8263    0.471     0.379 
8264    0.474     0.381 
8265    0.477     0.383 
8266    0.480     0.386 
8267    0.482     0.388 
8268    0.485     0.390 
8269    0.488     0.393 
8270    0.491     0.395 
8271    0.494     0.397 
8272    0.496     0.400 
8273    0.499     0.402 
8274    0.502     0.404 
8275    0.504     0.407 
8276    0.507     0.409 
8277    0.510     0.411 
8278    0.512     0.414 
8279    0.515     0.416 
8280    0.518     0.418 
8281    0.521     0.421 
8282    0.523     0.423 
8283    0.526     0.426 
8284    0.529     0.428 
8285    0.531     0.431 
8286    0.534     0.433 
8287    0.537     0.436 
8288    0.539     0.438 
8289    0.542     0.440 
8290    0.545     0.443 
8291    0.547     0.445 
8292    0.550     0.448 
8293    0.552     0.450 
8294    0.555     0.453 
8295    0.558     0.455 
8296    0.560     0.457 
8297    0.563     0.460 
8298    0.565     0.462 
8299    0.568     0.465 
8300    0.570     0.467 
8301    0.573     0.469 
8302    0.575     0.472 
8303    0.578     0.474 
8304    0.581     0.476 
8305    0.583     0.479 
8306    0.585     0.481 
8307    0.588     0.484 
8308    0.590     0.486 
8309    0.593     0.488 
8310    0.595     0.491 
8311    0.598     0.493 
8312    0.600     0.496 
8313    0.603     0.498 
8314    0.605     0.500 
8315    0.608     0.503 
8316    0.610     0.505 
8317    0.613     0.508 
8318    0.615     0.510 
8319    0.617     0.512 
8320    0.620     0.515 
8321    0.622     0.517 
8322    0.625     0.520 
8323    0.627     0.522 
8324    0.629     0.524 
8325    0.632     0.527 
8326    0.634     0.529 
8327    0.636     0.531 
8328    0.639     0.534 
8329    0.641     0.536 
8330    0.643     0.539 
8331    0.646     0.540 
8332    0.648     0.542 
8333    0.650     0.544 
8334    0.653     0.546 
8335    0.655     0.548 
8336    0.657     0.550 
8337    0.659     0.552 
8338    0.661     0.554 
8339    0.663     0.556 
8340    0.666     0.558 
8341    0.668     0.560 
8342    0.670     0.562 
8343    0.672     0.564 
8344    0.674     0.565 
8345    0.676     0.567 
8346    0.678     0.569 
8347    0.680     0.571 
8348    0.682     0.573 
8349    0.685     0.575 
8350    0.687     0.577 
8351    0.689     0.578 
8352    0.691     0.580 
8353    0.693     0.582 
8354    0.695     0.584 
8355    0.696     0.585 
8356    0.698     0.587 
8357    0.700     0.588 
8358    0.702     0.590 
8359    0.704     0.591 
8360    0.706     0.592 
8361    0.708     0.594 
8362    0.710     0.595 
8363    0.712     0.597 
8364    0.714     0.598 
8365    0.716     0.599 
8366    0.717     0.601 
8367    0.719     0.602 
8368    0.721     0.603 
8369    0.723     0.604 
8370    0.724     0.606 
8371    0.726     0.607 
8372    0.728     0.608 
8373    0.729     0.609 
8374    0.731     0.610 
8375    0.733     0.612 
8376    0.734     0.613 
8377    0.736     0.614 
8378    0.738     0.615 
8379    0.739     0.616 
8380    0.741     0.617 
8381    0.743     0.619 
8382    0.744     0.620 
8383    0.746     0.621 
8384    0.747     0.622 
8385    0.749     0.623 
8386    0.751     0.624 
8387    0.752     0.625 
8388    0.753     0.626 
8389    0.755     0.627 
8390    0.757     0.629 
8391    0.758     0.630 
8392    0.760     0.631 
8393    0.761     0.632 
8394    0.763     0.633 
8395    0.765     0.634 
8396    0.766     0.635 
8397    0.768     0.636 
8398    0.769     0.637 
8399    0.771     0.638 
8400    0.772     0.639 
8401    0.774     0.640 
8402    0.775     0.641 
8403    0.776     0.642 
8404    0.778     0.643 
8405    0.779     0.644 
8406    0.781     0.645 
8407    0.782     0.646 
8408    0.783     0.647 
8409    0.785     0.648 
8410    0.786     0.648 
8411    0.787     0.649 
8412    0.789     0.650 
8413    0.790     0.651 
8414    0.791     0.652 
8415    0.793     0.653 
8416    0.794     0.654 
8417    0.795     0.654 
8418    0.797     0.655 
8419    0.798     0.656 
8420    0.799     0.657 
8421    0.800     0.658 
8422    0.801     0.658 
8423    0.803     0.659 
8424    0.804     0.660 
8425    0.805     0.661 
8426    0.806     0.661 
8427    0.807     0.662 
8428    0.808     0.663 
8429    0.810     0.663 
8430    0.811     0.664 
8431    0.812     0.665 
8432    0.813     0.666 
8433    0.814     0.667 
8434    0.816     0.667 
8435    0.817     0.668 
8436    0.818     0.669 
8437    0.819     0.670 
8438    0.820     0.670 
8439    0.822     0.671 
8440    0.823     0.672 
8441    0.824     0.672 
8442    0.825     0.673 
8443    0.826     0.674 
8444    0.827     0.674 
8445    0.828     0.675 
8446    0.829     0.675 
8447    0.830     0.676 
8448    0.831     0.677 
8449    0.832     0.677 
8450    0.833     0.678 
8451    0.834     0.679 
8452    0.835     0.679 
8453    0.836     0.680 
8454    0.837     0.680 
8455    0.838     0.681 
8456    0.839     0.681 
8457    0.840     0.682 
8458    0.841     0.683 
8459    0.842     0.683 
8460    0.843     0.684 
8461    0.844     0.684 
8462    0.845     0.685 
8463    0.846     0.685 
8464    0.847     0.686 
8465    0.848     0.686 
8466    0.849     0.687 
8467    0.850     0.688 
8468    0.851     0.688 
8469    0.851     0.689 
8470    0.852     0.689 
8471    0.853     0.690 
8472    0.854     0.690 
8473    0.855     0.690 
8474    0.856     0.691 
8475    0.857     0.692 
8476    0.858     0.692 
8477    0.859     0.693 
8478    0.860     0.693 
8479    0.860     0.694 
8480    0.861     0.694 
8481    0.862     0.695 
8482    0.863     0.695 
8483    0.864     0.696 
8484    0.865     0.696 
8485    0.865     0.696 
8486    0.866     0.697 
8487    0.867     0.697 
8488    0.868     0.697 
8489    0.869     0.698 
8490    0.870     0.699 
8491    0.870     0.699 
8492    0.871     0.699 
8493    0.872     0.700 
8494    0.872     0.700 
8495    0.873     0.700 
8496    0.874     0.701 
8497    0.875     0.701 
8498    0.876     0.702 
8499    0.876     0.702 
8500    0.877     0.703 
8501    0.878     0.703 
8502    0.879     0.703 
8503    0.879     0.704 
8504    0.880     0.704 
8505    0.881     0.704 
8506    0.881     0.704 
8507    0.882     0.705 
8508    0.883     0.705 
8509    0.884     0.705 
8510    0.884     0.706 
8511    0.885     0.706 
8512    0.886     0.706 
8513    0.886     0.706 
8514    0.887     0.707 
8515    0.887     0.707 
8516    0.888     0.707 
8517    0.888     0.707 
8518    0.889     0.707 
8519    0.890     0.708 
8520    0.890     0.708 
8521    0.891     0.708 
8522    0.892     0.708 
8523    0.892     0.709 
8524    0.893     0.709 
8525    0.894     0.709 
8526    0.894     0.709 
8527    0.895     0.710 
8528    0.895     0.710 
8529    0.896     0.710 
8530    0.896     0.710 
8531    0.897     0.710 
8532    0.898     0.711 
8533    0.898     0.711 
8534    0.899     0.711 
8535    0.900     0.711 
8536    0.900     0.711 
8537    0.901     0.712 
8538    0.901     0.712 
8539    0.902     0.712 
8540    0.902     0.712 
8541    0.903     0.712 
8542    0.904     0.713 
8543    0.904     0.713 
8544    0.905     0.713 
8545    0.905     0.713 
8546    0.906     0.713 
8547    0.906     0.713 
8548    0.906     0.713 
8549    0.907     0.713 
8550    0.907     0.713 
8551    0.908     0.713 
8552    0.908     0.713 
8553    0.908     0.714 
8554    0.909     0.714 
8555    0.909     0.714 
8556    0.910     0.714 
8557    0.910     0.714 
8558    0.911     0.714 
8559    0.911     0.714 
8560    0.912     0.714 
8561    0.912     0.714 
8562    0.913     0.714 
8563    0.913     0.714 
8564    0.913     0.714 
8565    0.914     0.714 
8566    0.914     0.715 
8567    0.914     0.714 
8568    0.915     0.714 
8569    0.915     0.714 
8570    0.915     0.714 
8571    0.916     0.715 
8572    0.916     0.715 
8573    0.917     0.715 
8574    0.917     0.715 
8575    0.918     0.715 
8576    0.918     0.715 
8577    0.919     0.715 
8578    0.919     0.715 
8579    0.919     0.715 
8580    0.920     0.715 
8581    0.920     0.715 
8582    0.921     0.715 
8583    0.921     0.715 
8584    0.921     0.715 
8585    0.922     0.715 
8586    0.922     0.715 
8587    0.922     0.715 
8588    0.923     0.715 
8589    0.923     0.715 
8590    0.924     0.716 
8591    0.924     0.716 
8592    0.925     0.716 
8593    0.925     0.716 
8594    0.925     0.716 
8595    0.926     0.715 
8596    0.926     0.715 
8597    0.926     0.715 
8598    0.926     0.715 
8599    0.927     0.715 
8600    0.927     0.715 
8601    0.927     0.715 
8602    0.928     0.715 
8603    0.928     0.715 
8604    0.928     0.715 
8605    0.929     0.715 
8606    0.929     0.715 
8607    0.929     0.715 
8608    0.930     0.715 
8609    0.930     0.715 
8610    0.930     0.715 
8611    0.930     0.714 
8612    0.930     0.714 
8613    0.930     0.714 
8614    0.930     0.714 
8615    0.931     0.713 
8616    0.931     0.713 
8617    0.931     0.713 
8618    0.931     0.713 
8619    0.932     0.713 
8620    0.932     0.713 
8621    0.933     0.713 
8622    0.933     0.713 
8623    0.933     0.713 
8624    0.934     0.713 
8625    0.934     0.713 
8626    0.934     0.712 
8627    0.934     0.712 
8628    0.934     0.712 
8629    0.935     0.712 
8630    0.935     0.712 
8631    0.936     0.712 
8632    0.936     0.712 
8633    0.936     0.712 
8634    0.936     0.712 
8635    0.936     0.711 
8636    0.937     0.711 
8637    0.937     0.711 
8638    0.937     0.711 
8639    0.938     0.711 
8640    0.938     0.711 
8641    0.938     0.711 
8642    0.938     0.710 
8643    0.938     0.710 
8644    0.939     0.710 
8645    0.939     0.710 
8646    0.939     0.710 
8647    0.939     0.710 
8648    0.940     0.710 
8649    0.940     0.709 
8650    0.940     0.709 
8651    0.940     0.709 
8652    0.940     0.709 
8653    0.940     0.709 
8654    0.941     0.708 
8655    0.941     0.708 
8656    0.941     0.708 
8657    0.941     0.707 
8658    0.941     0.707 
8659    0.941     0.707 
8660    0.941     0.707 
8661    0.942     0.707 
8662    0.942     0.707 
8663    0.942     0.707 
8664    0.942     0.706 
8665    0.943     0.706 
8666    0.943     0.706 
8667    0.943     0.706 
8668    0.943     0.705 
8669    0.943     0.705 
8670    0.943     0.705 
8671    0.943     0.705 
8672    0.943     0.704 
8673    0.943     0.704 
8674    0.944     0.704 
8675    0.944     0.704 
8676    0.945     0.704 
8677    0.945     0.704 
8678    0.945     0.704 
8679    0.945     0.704 
8680    0.945     0.703 
8681    0.945     0.703 
8682    0.946     0.703 
8683    0.946     0.703 
8684    0.946     0.703 
8685    0.946     0.702 
8686    0.946     0.702 
8687    0.947     0.702 
8688    0.947     0.702 
8689    0.947     0.701 
8690    0.947     0.701 
8691    0.947     0.701 
8692    0.947     0.701 
8693    0.948     0.701 
8694    0.948     0.701 
8695    0.948     0.701 
8696    0.949     0.700 
8697    0.949     0.700 
8698    0.949     0.700 
8699    0.949     0.700 
8700    0.950     0.700 
8701    0.950     0.699 
8702    0.950     0.699 
8703    0.950     0.699 
8704    0.950     0.698 
8705    0.950     0.698 
8706    0.949     0.697 
8707    0.950     0.697 
8708    0.950     0.697 
8709    0.949     0.696 
8710    0.949     0.696 
8711    0.949     0.695 
8712    0.950     0.695 
8713    0.950     0.695 
8714    0.950     0.695 
8715    0.950     0.695 
8716    0.951     0.694 
8717    0.951     0.694 
8718    0.951     0.694 
8719    0.951     0.693 
8720    0.951     0.693 
8721    0.951     0.693 
8722    0.952     0.693 
8723    0.952     0.692 
8724    0.952     0.692 
8725    0.951     0.692 
8726    0.951     0.691 
8727    0.951     0.691 
8728    0.952     0.691 
8729    0.952     0.690 
8730    0.952     0.690 
8731    0.953     0.690 
8732    0.953     0.690 
8733    0.954     0.690 
8734    0.954     0.690 
8735    0.955     0.690 
8736    0.955     0.690 
8737    0.955     0.689 
8738    0.955     0.689 
8739    0.955     0.689 
8740    0.955     0.688 
8741    0.955     0.688 
8742    0.955     0.688 
8743    0.956     0.688 
8744    0.956     0.688 
8745    0.956     0.687 
8746    0.956     0.687 
8747    0.956     0.686 
8748    0.956     0.686 
8749    0.956     0.686 
8750    0.956     0.685 
8751    0.956     0.685 
8752    0.956     0.685 
8753    0.956     0.684 
8754    0.956     0.684 
8755    0.956     0.684 
8756    0.956     0.683 
8757    0.956     0.683 
8758    0.956     0.682 
8759    0.956     0.682 
8760    0.955     0.681 
8761    0.955     0.681 
8762    0.955     0.681 
8763    0.955     0.680 
8764    0.955     0.680 
8765    0.956     0.680 
8766    0.956     0.679 
8767    0.956     0.679 
8768    0.956     0.679 
8769    0.957     0.679 
8770    0.957     0.679 
8771    0.957     0.678 
8772    0.957     0.678 
8773    0.957     0.677 
8774    0.956     0.676 
8775    0.956     0.676 
8776    0.956     0.676 
8777    0.956     0.675 
8778    0.956     0.675 
8779    0.956     0.675 
8780    0.956     0.674 
8781    0.956     0.674 
8782    0.957     0.674 
8783    0.957     0.674 
8784    0.957     0.674 
8785    0.957     0.673 
8786    0.958     0.673 
8787    0.958     0.673 
8788    0.958     0.673 
8789    0.959     0.673 
8790    0.959     0.673 
8791    0.959     0.672 
8792    0.958     0.672 
8793    0.958     0.671 
8794    0.958     0.671 
8795    0.958     0.670 
8796    0.958     0.670 
8797    0.958     0.670 
8798    0.959     0.670 
8799    0.960     0.670 
8800    0.960     0.670 
8801    0.961     0.670 
8802    0.961     0.670 
8803    0.962     0.670 
8804    0.962     0.670 
8805    0.962     0.669 
8806    0.962     0.669 
8807    0.962     0.669 
8808    0.962     0.668 
8809    0.962     0.668 
8810    0.961     0.667 
8811    0.962     0.667 
8812    0.962     0.667 
8813    0.961     0.666 
8814    0.961     0.665 
8815    0.960     0.665 
8816    0.960     0.664 
8817    0.960     0.664 
8818    0.961     0.664 
8819    0.960     0.663 
8820    0.960     0.662 
8821    0.960     0.662 
8822    0.960     0.661 
8823    0.959     0.661 
8824    0.959     0.660 
8825    0.958     0.660 
8826    0.958     0.659 
8827    0.958     0.659 
8828    0.959     0.659 
8829    0.959     0.659 
8830    0.959     0.658 
8831    0.959     0.658 
8832    0.959     0.658 
8833    0.960     0.658 
8834    0.961     0.658 
8835    0.961     0.658 
8836    0.961     0.658 
8837    0.962     0.657 
8838    0.962     0.657 
8839    0.962     0.657 
8840    0.963     0.657 
8841    0.963     0.657 
8842    0.963     0.657 
8843    0.963     0.657 
8844    0.964     0.657 
8845    0.964     0.657 
8846    0.965     0.657 
8847    0.966     0.657 
8848    0.966     0.657 
8849    0.966     0.656 
8850    0.966     0.656 
8851    0.967     0.657 
8852    0.968     0.657 
8853    0.968     0.656 
8854    0.968     0.656 
8855    0.968     0.655 
8856    0.968     0.655 
8857    0.968     0.655 
8858    0.968     0.655 
8859    0.967     0.654 
8860    0.967     0.653 
8861    0.967     0.653 
8862    0.967     0.652 
8863    0.966     0.652 
8864    0.966     0.651 
8865    0.966     0.651 
8866    0.966     0.651 
8867    0.966     0.650 
8868    0.966     0.650 
8869    0.966     0.650 
8870    0.966     0.649 
8871    0.967     0.649 
8872    0.967     0.649 
8873    0.967     0.649 
8874    0.966     0.648 
8875    0.966     0.648 
8876    0.965     0.647 
8877    0.964     0.646 
8878    0.964     0.645 
8879    0.964     0.645 
8880    0.963     0.644 
8881    0.964     0.644 
8882    0.964     0.643 
8883    0.963     0.643 
8884    0.963     0.642 
8885    0.963     0.642 
8886    0.964     0.642 
8887    0.964     0.642 
8888    0.964     0.641 
8889    0.964     0.641 
8890    0.965     0.641 
8891    0.964     0.640 
8892    0.964     0.640 
8893    0.964     0.639 
8894    0.964     0.639 
8895    0.964     0.638 
8896    0.964     0.638 
8897    0.963     0.637 
8898    0.963     0.637 
8899    0.963     0.636 
8900    0.963     0.636 
8901    0.965     0.636 
8902    0.966     0.637 
8903    0.966     0.637 
8904    0.967     0.637 
8905    0.967     0.636 
8906    0.968     0.635 
8907    0.967     0.634 
8908    0.967     0.633 
8909    0.967     0.631 
8910    0.967     0.630 
8911    0.967     0.629 
8912    0.967     0.629 
8913    0.967     0.627 
8914    0.967     0.626 
8915    0.966     0.624 
8916    0.966     0.623 
8917    0.966     0.622 
8918    0.966     0.621 
8919    0.967     0.620 
8920    0.968     0.619 
8921    0.967     0.618 
8922    0.967     0.617 
8923    0.967     0.616 
8924    0.968     0.615 
8925    0.968     0.614 
8926    0.968     0.613 
8927    0.967     0.611 
8928    0.967     0.610 
8929    0.967     0.609 
8930    0.967     0.608 
8931    0.967     0.606 
8932    0.966     0.604 
8933    0.966     0.603 
8934    0.966     0.601 
8935    0.966     0.600 
8936    0.966     0.599 
8937    0.966     0.597 
8938    0.966     0.596 
8939    0.967     0.595 
8940    0.968     0.594 
8941    0.968     0.593 
8942    0.968     0.592 
8943    0.969     0.590 
8944    0.969     0.589 
8945    0.968     0.587 
8946    0.968     0.585 
8947    0.968     0.584 
8948    0.969     0.583 
8949    0.968     0.581 
8950    0.968     0.580 
8951    0.967     0.578 
8952    0.966     0.576 
8953    0.967     0.575 
8954    0.967     0.574 
8955    0.967     0.572 
8956    0.967     0.571 
8957    0.967     0.570 
8958    0.967     0.569 
8959    0.968     0.568 
8960    0.968     0.568 
8961    0.967     0.566 
8962    0.967     0.565 
8963    0.967     0.564 
8964    0.966     0.562 
8965    0.966     0.561 
8966    0.965     0.559 
8967    0.965     0.558 
8968    0.965     0.557 
8969    0.965     0.556 
8970    0.965     0.555 
8971    0.965     0.554 
8972    0.965     0.553 
8973    0.965     0.552 
8974    0.966     0.551 
8975    0.966     0.550 
8976    0.966     0.549 
8977    0.966     0.548 
8978    0.966     0.547 
8979    0.965     0.545 
8980    0.965     0.544 
8981    0.964     0.543 
8982    0.962     0.542 
8983    0.962     0.541 
8984    0.962     0.541 
8985    0.962     0.541 
8986    0.962     0.540 
8987    0.962     0.540 
8988    0.962     0.539 
8989    0.962     0.539 
8990    0.962     0.539 
8991    0.962     0.538 
8992    0.963     0.538 
8993    0.963     0.537 
8994    0.963     0.537 
8995    0.964     0.537 
8996    0.964     0.537 
8997    0.963     0.536 
8998    0.962     0.535 
8999    0.961     0.534 
9000    0.959     0.533 
9001    0.960     0.533 
9002    0.961     0.532 
9003    0.960     0.532 
9004    0.959     0.531 
9005    0.960     0.531 
9006    0.961     0.531 
9007    0.961     0.531 
9008    0.962     0.532 
9009    0.963     0.532 
9010    0.964     0.533 
9011    0.964     0.533 
9012    0.964     0.533 
9013    0.965     0.533 
9014    0.966     0.534 
9015    0.968     0.535 
9016    0.969     0.535 
9017    0.969     0.535 
9018    0.969     0.535 
9019    0.970     0.536 
9020    0.971     0.536 
9021    0.970     0.536 
9022    0.970     0.535 
9023    0.970     0.535 
9024    0.970     0.535 
9025    0.970     0.535 
9026    0.970     0.535 
9027    0.969     0.535 
9028    0.968     0.534 
9029    0.969     0.535 
9030    0.970     0.535 
9031    0.970     0.535 
9032    0.970     0.535 
9033    0.971     0.536 
9034    0.972     0.536 
9035    0.971     0.536 
9036    0.970     0.535 
9037    0.970     0.535 
9038    0.970     0.535 
9039    0.971     0.535 
9040    0.971     0.536 
9041    0.971     0.535 
9042    0.970     0.535 
9043    0.970     0.535 
9044    0.970     0.535 
9045    0.970     0.535 
9046    0.969     0.535 
9047    0.968     0.534 
9048    0.967     0.533 
9049    0.969     0.534 
9050    0.971     0.535 
9051    0.971     0.535 
9052    0.970     0.535 
9053    0.972     0.536 
9054    0.974     0.537 
9055    0.974     0.537 
9056    0.974     0.537 
9057    0.976     0.537 
9058    0.977     0.538 
9059    0.977     0.537 
9060    0.977     0.537 
9061    0.976     0.537 
9062    0.976     0.536 
9063    0.976     0.536 
9064    0.977     0.536 
9065    0.977     0.536 
9066    0.977     0.535 
9067    0.975     0.534 
9068    0.973     0.533 
9069    0.972     0.532 
9070    0.972     0.531 
9071    0.970     0.530 
9072    0.969     0.529 
9073    0.971     0.530 
9074    0.973     0.531 
9075    0.972     0.530 
9076    0.970     0.528 
9077    0.971     0.529 
9078    0.972     0.529 
9079    0.971     0.528 
9080    0.970     0.527 
9081    0.969     0.526 
9082    0.969     0.526 
9083    0.967     0.524 
9084    0.965     0.522 
9085    0.964     0.521 
9086    0.963     0.520 
9087    0.964     0.520 
9088    0.965     0.520 
9089    0.965     0.520 
9090    0.964     0.519 
9091    0.963     0.518 
9092    0.963     0.517 
9093    0.964     0.517 
9094    0.965     0.517 
9095    0.966     0.517 
9096    0.967     0.517 
9097    0.968     0.517 
9098    0.969     0.517 
9099    0.968     0.516 
9100    0.968     0.515 
9101    0.968     0.515 
9102    0.969     0.515 
9103    0.969     0.514 
9104    0.969     0.514 
9105    0.969     0.513 
9106    0.969     0.513 
9107    0.969     0.512 
9108    0.970     0.512 
9109    0.971     0.512 
9110    0.971     0.512 
9111    0.971     0.511 
9112    0.971     0.511 
9113    0.971     0.510 
9114    0.971     0.509 
9115    0.971     0.509 
9116    0.971     0.508 
9117    0.971     0.508 
9118    0.971     0.507 
9119    0.971     0.506 
9120    0.971     0.506 
9121    0.971     0.505 
9122    0.971     0.505 
9123    0.971     0.504 
9124    0.971     0.504 
9125    0.971     0.503 
9126    0.971     0.503 
9127    0.971     0.502 
9128    0.971     0.501 
9129    0.971     0.501 
9130    0.971     0.500 
9131    0.971     0.500 
9132    0.971     0.499 
9133    0.971     0.499 
9134    0.971     0.499 
9135    0.971     0.498 
9136    0.971     0.498 
9137    0.971     0.497 
9138    0.971     0.497 
9139    0.971     0.497 
9140    0.971     0.496 
9141    0.971     0.496 
9142    0.971     0.496 
9143    0.971     0.495 
9144    0.971     0.495 
9145    0.971     0.494 
9146    0.971     0.494 
9147    0.971     0.494 
9148    0.971     0.493 
9149    0.971     0.493 
9150    0.971     0.493 
9151    0.971     0.492 
9152    0.971     0.492 
9153    0.971     0.491 
9154    0.971     0.491 
9155    0.971     0.491 
9156    0.971     0.490 
9157    0.971     0.491 
9158    0.972     0.491 
9159    0.971     0.490 
9160    0.971     0.490 
9161    0.971     0.490 
9162    0.971     0.490 
9163    0.971     0.490 
9164    0.971     0.490 
9165    0.971     0.490 
9166    0.971     0.490 
9167    0.971     0.490 
9168    0.971     0.490 
9169    0.971     0.490 
9170    0.971     0.490 
9171    0.971     0.489 
9172    0.971     0.489 
9173    0.971     0.489 
9174    0.971     0.489 
9175    0.971     0.489 
9176    0.972     0.489 
9177    0.972     0.489 
9178    0.971     0.489 
9179    0.972     0.489 
9180    0.972     0.489 
9181    0.972     0.489 
9182    0.971     0.489 
9183    0.971     0.489 
9184    0.971     0.489 
9185    0.971     0.489 
9186    0.971     0.489 
9187    0.971     0.489 
9188    0.971     0.489 
9189    0.972     0.489 
9190    0.972     0.489 
9191    0.972     0.489 
9192    0.971     0.488 
9193    0.972     0.489 
9194    0.972     0.489 
9195    0.972     0.489 
9196    0.971     0.488 
9197    0.972     0.489 
9198    0.972     0.489 
9199    0.972     0.489 
9200    0.971     0.488 
9201    0.972     0.488 
9202    0.972     0.488 
9203    0.972     0.488 
9204    0.972     0.488 
9205    0.971     0.488 
9206    0.971     0.488 
9207    0.972     0.488 
9208    0.972     0.487 
9209    0.972     0.487 
9210    0.971     0.486 
9211    0.972     0.486 
9212    0.972     0.486 
9213    0.972     0.485 
9214    0.972     0.485 
9215    0.972     0.485 
9216    0.972     0.484 
9217    0.972     0.484 
9218    0.972     0.483 
9219    0.972     0.483 
9220    0.972     0.483 
9221    0.972     0.482 
9222    0.972     0.482 
9223    0.972     0.482 
9224    0.971     0.481 
9225    0.972     0.481 
9226    0.972     0.481 
9227    0.972     0.480 
9228    0.972     0.480 
9229    0.972     0.479 
9230    0.972     0.479 
9231    0.972     0.478 
9232    0.972     0.477 
9233    0.972     0.476 
9234    0.972     0.475 
9235    0.972     0.474 
9236    0.972     0.473 
9237    0.972     0.472 
9238    0.972     0.470 
9239    0.972     0.469 
9240    0.973     0.469 
9241    0.972     0.467 
9242    0.972     0.466 
9243    0.972     0.465 
9244    0.973     0.464 
9245    0.972     0.463 
9246    0.972     0.462 
9247    0.972     0.461 
9248    0.973     0.460 
9249    0.973     0.459 
9250    0.973     0.458 
9251    0.972     0.456 
9252    0.972     0.455 
9253    0.973     0.454 
9254    0.973     0.453 
9255    0.972     0.452 
9256    0.972     0.450 
9257    0.973     0.448 
9258    0.973     0.447 
9259    0.973     0.444 
9260    0.972     0.442 
9261    0.973     0.441 
9262    0.973     0.439 
9263    0.973     0.437 
9264    0.972     0.434 
9265    0.972     0.433 
9266    0.973     0.431 
9267    0.973     0.429 
9268    0.972     0.427 
9269    0.973     0.425 
9270    0.973     0.423 
9271    0.973     0.421 
9272    0.973     0.419 
9273    0.973     0.417 
9274    0.973     0.415 
9275    0.973     0.413 
9276    0.973     0.411 
9277    0.973     0.409 
9278    0.973     0.408 
9279    0.972     0.406 
9280    0.972     0.404 
9281    0.973     0.401 
9282    0.973     0.399 
9283    0.973     0.397 
9284    0.972     0.395 
9285    0.973     0.393 
9286    0.973     0.391 
9287    0.973     0.389 
9288    0.972     0.386 
9289    0.973     0.384 
9290    0.973     0.382 
9291    0.973     0.380 
9292    0.972     0.378 
9293    0.972     0.376 
9294    0.973     0.374 
9295    0.972     0.371 
9296    0.972     0.369 
9297    0.973     0.367 
9298    0.973     0.365 
9299    0.973     0.363 
9300    0.972     0.361 
9301    0.973     0.359 
9302    0.973     0.357 
9303    0.973     0.354 
9304    0.973     0.352 
9305    0.973     0.350 
9306    0.973     0.349 
9307    0.973     0.347 
9308    0.973     0.345 
9309    0.973     0.343 
9310    0.973     0.342 
9311    0.973     0.340 
9312    0.973     0.339 
9313    0.973     0.337 
9314    0.973     0.335 
9315    0.973     0.333 
9316    0.973     0.332 
9317    0.973     0.330 
9318    0.973     0.328 
9319    0.973     0.327 
9320    0.973     0.325 
9321    0.973     0.324 
9322    0.973     0.322 
9323    0.973     0.320 
9324    0.973     0.319 
9325    0.973     0.317 
9326    0.973     0.315 
9327    0.973     0.314 
9328    0.973     0.312 
9329    0.973     0.310 
9330    0.973     0.309 
9331    0.973     0.308 
9332    0.973     0.307 
9333    0.973     0.306 
9334    0.973     0.305 
9335    0.973     0.305 
9336    0.973     0.304 
9337    0.973     0.303 
9338    0.973     0.302 
9339    0.973     0.302 
9340    0.973     0.301 
9341    0.973     0.300 
9342    0.973     0.299 
9343    0.973     0.299 
9344    0.973     0.298 
9345    0.973     0.297 
9346    0.973     0.296 
9347    0.973     0.295 
9348    0.974     0.295 
9349    0.973     0.294 
9350    0.973     0.293 
9351    0.973     0.292 
9352    0.973     0.292 
9353    0.973     0.291 
9354    0.973     0.290 
9355    0.973     0.289 
9356    0.973     0.289 
9357    0.973     0.289 
9358    0.973     0.290 
9359    0.973     0.290 
9360    0.973     0.290 
9361    0.973     0.290 
9362    0.974     0.290 
9363    0.973     0.290 
9364    0.973     0.290 
9365    0.973     0.290 
9366    0.974     0.290 
9367    0.973     0.291 
9368    0.973     0.291 
9369    0.973     0.291 
9370    0.974     0.291 
9371    0.973     0.291 
9372    0.973     0.291 
9373    0.973     0.291 
9374    0.974     0.291 
9375    0.973     0.291 
9376    0.973     0.291 
9377    0.973     0.292 
9378    0.973     0.292 
9379    0.973     0.292 
9380    0.973     0.292 
9381    0.973     0.292 
9382    0.973     0.292 
9383    0.973     0.293 
9384    0.973     0.293 
9385    0.973     0.293 
9386    0.973     0.293 
9387    0.973     0.294 
9388    0.973     0.294 
9389    0.973     0.294 
9390    0.973     0.295 
9391    0.973     0.295 
9392    0.973     0.295 
9393    0.973     0.295 
9394    0.973     0.296 
9395    0.973     0.296 
9396    0.973     0.296 
9397    0.973     0.296 
9398    0.973     0.297 
9399    0.973     0.297 
9400    0.973     0.297 
9401    0.973     0.298 
9402    0.974     0.298 
9403    0.973     0.298 
9404    0.973     0.298 
9405    0.973     0.299 
9406    0.973     0.298 
9407    0.973     0.298 
9408    0.973     0.298 
9409    0.973     0.297 
9410    0.973     0.297 
9411    0.974     0.297 
9412    0.974     0.296 
9413    0.974     0.296 
9414    0.974     0.296 
9415    0.974     0.296 
9416    0.974     0.295 
9417    0.974     0.295 
9418    0.973     0.294 
9419    0.974     0.294 
9420    0.974     0.294 
9421    0.974     0.293 
9422    0.973     0.293 
9423    0.974     0.293 
9424    0.974     0.292 
9425    0.974     0.292 
9426    0.974     0.292 
9427    0.974     0.291 
9428    0.974     0.291 
9429    0.974     0.291 
9430    0.974     0.290 
9431    0.974     0.290 
9432    0.974     0.289 
9433    0.974     0.288 
9434    0.974     0.287 
9435    0.974     0.287 
9436    0.974     0.286 
9437    0.974     0.285 
9438    0.974     0.284 
9439    0.974     0.283 
9440    0.973     0.282 
9441    0.974     0.282 
9442    0.974     0.281 
9443    0.974     0.280 
9444    0.973     0.279 
9445    0.974     0.279 
9446    0.974     0.278 
9447    0.974     0.277 
9448    0.974     0.276 
9449    0.974     0.275 
9450    0.974     0.275 
9451    0.974     0.274 
9452    0.974     0.273 
9453    0.974     0.272 
9454    0.974     0.271 
9455    0.974     0.271 
9456    0.974     0.270 
9457    0.974     0.270 
9458    0.974     0.270 
9459    0.974     0.270 
9460    0.974     0.270 
9461    0.974     0.270 
9462    0.974     0.269 
9463    0.974     0.269 
9464    0.974     0.269 
9465    0.974     0.269 
9466    0.974     0.269 
9467    0.974     0.269 
9468    0.974     0.268 
9469    0.974     0.268 
9470    0.974     0.268 
9471    0.974     0.268 
9472    0.974     0.268 
9473    0.974     0.268 
9474    0.974     0.268 
9475    0.974     0.267 
9476    0.974     0.267 
9477    0.974     0.267 
9478    0.974     0.267 
9479    0.974     0.267 
9480    0.974     0.266 
9481    0.974     0.266 
9482    0.974     0.266 
9483    0.974     0.266 
9484    0.974     0.266 
9485    0.974     0.266 
9486    0.974     0.266 
9487    0.974     0.266 
9488    0.974     0.266 
9489    0.974     0.266 
9490    0.974     0.266 
9491    0.974     0.266 
9492    0.974     0.266 
9493    0.974     0.266 
9494    0.974     0.266 
9495    0.974     0.266 
9496    0.974     0.266 
9497    0.974     0.266 
9498    0.974     0.266 
9499    0.974     0.266 
9500    0.974     0.266 
9501    0.974     0.266 
9502    0.974     0.266 
9503    0.974     0.266 
9504    0.974     0.266 
9505    0.974     0.266 
9506    0.974     0.265 
9507    0.974     0.265 
9508    0.974     0.264 
9509    0.974     0.264 
9510    0.974     0.263 
9511    0.974     0.263 
9512    0.974     0.262 
9513    0.974     0.262 
9514    0.974     0.261 
9515    0.974     0.261 
9516    0.974     0.261 
9517    0.974     0.260 
9518    0.974     0.260 
9519    0.974     0.259 
9520    0.974     0.259 
9521    0.974     0.258 
9522    0.974     0.258 
9523    0.974     0.257 
9524    0.974     0.257 
9525    0.974     0.256 
9526    0.974     0.256 
9527    0.974     0.255 
9528    0.974     0.255 
9529    0.974     0.255 
9530    0.974     0.254 
9531    0.974     0.254 
9532    0.974     0.254 
9533    0.974     0.253 
9534    0.974     0.253 
9535    0.974     0.253 
9536    0.974     0.253 
9537    0.974     0.253 
9538    0.974     0.252 
9539    0.974     0.252 
9540    0.975     0.252 
9541    0.974     0.252 
9542    0.974     0.251 
9543    0.974     0.251 
9544    0.974     0.251 
9545    0.974     0.251 
9546    0.974     0.250 
9547    0.974     0.250 
9548    0.974     0.250 
9549    0.974     0.250 
9550    0.974     0.250 
9551    0.974     0.249 
9552    0.974     0.249 
9553    0.974     0.249 
9554    0.974     0.249 
9555    0.974     0.249 
9556    0.974     0.249 
9557    0.974     0.249 
9558    0.974     0.249 
9559    0.974     0.249 
9560    0.974     0.249 
9561    0.974     0.249 
9562    0.974     0.249 
9563    0.974     0.249 
9564    0.975     0.249 
9565    0.974     0.249 
9566    0.974     0.249 
9567    0.974     0.250 
9568    0.975     0.250 
9569    0.974     0.250 
9570    0.974     0.250 
9571    0.974     0.250 
9572    0.975     0.250 
9573    0.974     0.250 
9574    0.974     0.250 
9575    0.975     0.250 
9576    0.975     0.250 
9577    0.975     0.250 
9578    0.975     0.250 
9579    0.975     0.251 
9580    0.975     0.251 
9581    0.975     0.251 
9582    0.975     0.251 
9583    0.975     0.251 
9584    0.975     0.251 
9585    0.975     0.251 
9586    0.975     0.251 
9587    0.975     0.251 
9588    0.975     0.251 
9589    0.975     0.251 
9590    0.975     0.251 
9591    0.975     0.251 
9592    0.974     0.251 
9593    0.975     0.251 
9594    0.975     0.251 
9595    0.975     0.251 
9596    0.974     0.251 
9597    0.975     0.251 
9598    0.975     0.251 
9599    0.975     0.251 
9600    0.975     0.251 
9601    0.975     0.251 
9602    0.975     0.251 
9603    0.975     0.251 
9604    0.975     0.251 
9605    0.975     0.251 
9606    0.974     0.251 
9607    0.975     0.251 
9608    0.975     0.252 
9609    0.974     0.252 
9610    0.974     0.252 
9611    0.974     0.252 
9612    0.975     0.252 
9613    0.974     0.252 
9614    0.974     0.252 
9615    0.975     0.252 
9616    0.975     0.252 
9617    0.975     0.252 
9618    0.975     0.252 
9619    0.975     0.252 
9620    0.975     0.252 
9621    0.975     0.252 
9622    0.975     0.252 
9623    0.975     0.252 
9624    0.974     0.252 
9625    0.975     0.253 
9626    0.975     0.253 
9627    0.975     0.253 
9628    0.975     0.253 
9629    0.975     0.253 
9630    0.975     0.253 
9631    0.975     0.253 
9632    0.975     0.253 
9633    0.975     0.253 
9634    0.975     0.253 
9635    0.975     0.253 
9636    0.975     0.254 
9637    0.975     0.254 
9638    0.975     0.254 
9639    0.975     0.254 
9640    0.975     0.254 
9641    0.975     0.254 
9642    0.975     0.254 
9643    0.975     0.254 
9644    0.975     0.255 
9645    0.975     0.255 
9646    0.975     0.255 
9647    0.975     0.255 
9648    0.975     0.255 
9649    0.975     0.255 
9650    0.975     0.255 
9651    0.975     0.255 
9652    0.975     0.255 
9653    0.975     0.256 
9654    0.975     0.256 
9655    0.975     0.256 
9656    0.975     0.256 
9657    0.975     0.256 
9658    0.975     0.256 
9659    0.975     0.256 
9660    0.975     0.256 
9661    0.975     0.256 
9662    0.975     0.256 
9663    0.975     0.256 
9664    0.975     0.256 
9665    0.975     0.256 
9666    0.975     0.256 
9667    0.975     0.256 
9668    0.975     0.256 
9669    0.975     0.256 
9670    0.975     0.256 
9671    0.975     0.256 
9672    0.975     0.256 
9673    0.975     0.255 
9674    0.975     0.255 
9675    0.975     0.255 
9676    0.975     0.255 
9677    0.975     0.255 
9678    0.975     0.255 
9679    0.975     0.255 
9680    0.975     0.255 
9681    0.975     0.255 
9682    0.975     0.255 
9683    0.975     0.254 
9684    0.975     0.254 
9685    0.975     0.254 
9686    0.975     0.253 
9687    0.975     0.253 
9688    0.975     0.252 
9689    0.975     0.252 
9690    0.975     0.252 
9691    0.975     0.251 
9692    0.975     0.251 
9693    0.975     0.251 
9694    0.975     0.250 
9695    0.975     0.250 
9696    0.975     0.250 
9697    0.975     0.249 
9698    0.975     0.249 
9699    0.975     0.249 
9700    0.975     0.248 
9701    0.975     0.248 
9702    0.975     0.248 
9703    0.975     0.247 
9704    0.975     0.247 
9705    0.975     0.247 
9706    0.975     0.246 
9707    0.975     0.245 
9708    0.975     0.245 
9709    0.975     0.244 
9710    0.975     0.244 
9711    0.975     0.243 
9712    0.975     0.242 
9713    0.975     0.242 
9714    0.975     0.241 
9715    0.975     0.240 
9716    0.975     0.240 
9717    0.975     0.239 
9718    0.975     0.239 
9719    0.975     0.238 
9720    0.975     0.237 
9721    0.975     0.237 
9722    0.975     0.236 
9723    0.975     0.235 
9724    0.975     0.235 
9725    0.975     0.234 
9726    0.975     0.233 
9727    0.975     0.233 
9728    0.975     0.232 
9729    0.975     0.232 
9730    0.975     0.231 
9731    0.975     0.231 
9732    0.975     0.230 
9733    0.975     0.229 
9734    0.975     0.229 
9735    0.975     0.228 
9736    0.975     0.228 
9737    0.975     0.227 
9738    0.976     0.227 
9739    0.975     0.226 
9740    0.975     0.226 
9741    0.975     0.225 
9742    0.975     0.225 
9743    0.975     0.224 
9744    0.975     0.224 
9745    0.975     0.223 
9746    0.976     0.223 
9747    0.975     0.222 
9748    0.975     0.222 
9749    0.975     0.221 
9750    0.976     0.221 
9751    0.976     0.220 
9752    0.976     0.220 
9753    0.976     0.219 
9754    0.975     0.218 
9755    0.976     0.218 
9756    0.976     0.218 
9757    0.976     0.217 
9758    0.975     0.217 
9759    0.976     0.217 
9760    0.976     0.216 
9761    0.976     0.216 
9762    0.975     0.216 
9763    0.975     0.215 
9764    0.976     0.215 
9765    0.976     0.215 
9766    0.975     0.214 
9767    0.975     0.214 
9768    0.975     0.214 
9769    0.976     0.213 
9770    0.976     0.213 
9771    0.976     0.213 
9772    0.975     0.212 
9773    0.976     0.212 
9774    0.976     0.212 
9775    0.976     0.212 
9776    0.975     0.211 
9777    0.976     0.211 
9778    0.976     0.211 
9779    0.976     0.210 
9780    0.975     0.210 
9781    0.976     0.210 
9782    0.976     0.209 
9783    0.976     0.209 
9784    0.975     0.209 
9785    0.976     0.209 
9786    0.976     0.209 
9787    0.976     0.208 
9788    0.976     0.208 
9789    0.976     0.208 
9790    0.976     0.208 
9791    0.976     0.207 
9792    0.976     0.207 
9793    0.976     0.207 
9794    0.976     0.207 
9795    0.976     0.207 
9796    0.976     0.206 
9797    0.976     0.206 
9798    0.975     0.206 
9799    0.975     0.206 
9800    0.975     0.205 
9801    0.975     0.205 
9802    0.975     0.205 
9803    0.975     0.205 
9804    0.975     0.205 
9805    0.975     0.204 
9806    0.975     0.204 
9807    0.975     0.204 
9808    0.975     0.204 
9809    0.975     0.204 
9810    0.975     0.204 
9811    0.975     0.203 
9812    0.975     0.203 
9813    0.975     0.203 
9814    0.975     0.203 
9815    0.975     0.203 
9816    0.975     0.202 
9817    0.975     0.202 
9818    0.975     0.202 
9819    0.975     0.202 
9820    0.975     0.202 
9821    0.975     0.202 
9822    0.975     0.201 
9823    0.976     0.201 
9824    0.976     0.201 
9825    0.976     0.201 
9826    0.976     0.201 
9827    0.976     0.201 
9828    0.976     0.200 
9829    0.976     0.200 
9830    0.976     0.200 
9831    0.976     0.200 
9832    0.976     0.200 
9833    0.976     0.199 
9834    0.976     0.199 
9835    0.976     0.199 
9836    0.976     0.198 
9837    0.976     0.198 
9838    0.976     0.198 
9839    0.976     0.198 
9840    0.976     0.197 
9841    0.976     0.197 
9842    0.976     0.197 
9843    0.976     0.197 
9844    0.976     0.196 
9845    0.976     0.196 
9846    0.976     0.196 
9847    0.976     0.195 
9848    0.976     0.195 
9849    0.976     0.195 
9850    0.976     0.195 
9851    0.976     0.194 
9852    0.976     0.194 
9853    0.976     0.194 
9854    0.976     0.194 
9855    0.976     0.193 
9856    0.976     0.193 
9857    0.976     0.192 
9858    0.976     0.192 
9859    0.976     0.192 
9860    0.976     0.191 
9861    0.976     0.191 
9862    0.976     0.190 
9863    0.976     0.190 
9864    0.976     0.190 
9865    0.976     0.189 
9866    0.976     0.189 
9867    0.976     0.189 
9868    0.976     0.188 
9869    0.976     0.188 
9870    0.976     0.187 
9871    0.976     0.187 
9872    0.976     0.187 
9873    0.976     0.186 
9874    0.976     0.186 
9875    0.976     0.185 
9876    0.976     0.185 
9877    0.976     0.185 
9878    0.976     0.184 
9879    0.976     0.184 
9880    0.976     0.183 
9881    0.976     0.183 
9882    0.976     0.183 
9883    0.976     0.182 
9884    0.976     0.182 
9885    0.976     0.181 
9886    0.976     0.181 
9887    0.976     0.181 
9888    0.976     0.180 
9889    0.976     0.180 
9890    0.976     0.179 
9891    0.976     0.179 
9892    0.976     0.179 
9893    0.976     0.178 
9894    0.976     0.178 
9895    0.976     0.177 
9896    0.976     0.177 
9897    0.976     0.177 
9898    0.976     0.176 
9899    0.976     0.176 
9900    0.976     0.175 
9901    0.976     0.175 
9902    0.976     0.174 
9903    0.976     0.174 
9904    0.976     0.174 
9905    0.976     0.173 
9906    0.976     0.173 
9907    0.976     0.173 
9908    0.976     0.172 
9909    0.976     0.172 
9910    0.976     0.171 
9911    0.976     0.171 
9912    0.976     0.171 
9913    0.976     0.170 
9914    0.976     0.170 
9915    0.976     0.169 
9916    0.976     0.169 
9917    0.976     0.169 
9918    0.976     0.168 
9919    0.976     0.168 
9920    0.976     0.168 
9921    0.976     0.167 
9922    0.976     0.167 
9923    0.976     0.166 
9924    0.976     0.166 
9925    0.976     0.166 
9926    0.976     0.165 
9927    0.976     0.165 
9928    0.976     0.164 
9929    0.976     0.164 
9930    0.976     0.164 
9931    0.976     0.163 
9932    0.976     0.163 
9933    0.976     0.163 
9934    0.976     0.162 
9935    0.976     0.162 
9936    0.976     0.161 
9937    0.976     0.161 
9938    0.976     0.161 
9939    0.976     0.160 
9940    0.976     0.160 
9941    0.976     0.159 
9942    0.976     0.159 
9943    0.976     0.159 
9944    0.976     0.158 
9945    0.976     0.158 
9946    0.976     0.158 
9947    0.976     0.157 
9948    0.976     0.157 
9949    0.976     0.156 
9950    0.976     0.156 
9951    0.976     0.156 
9952    0.976     0.155 
9953    0.976     0.155 
9954    0.976     0.155 
9955    0.976     0.154 
9956    0.976     0.154 
9957    0.976     0.153 
9958    0.976     0.153 
9959    0.976     0.153 
9960    0.976     0.152 
9961    0.976     0.152 
9962    0.976     0.151 
9963    0.976     0.151 
9964    0.976     0.151 
9965    0.976     0.150 
9966    0.976     0.150 
9967    0.976     0.150 
9968    0.976     0.149 
9969    0.976     0.149 
9970    0.976     0.148 
9971    0.976     0.148 
9972    0.976     0.148 
9973    0.976     0.147 
9974    0.976     0.147 
9975    0.976     0.146 
9976    0.976     0.146 
9977    0.976     0.146 
9978    0.976     0.145 
9979    0.976     0.145 
9980    0.976     0.145 
9981    0.976     0.144 
9982    0.976     0.144 
9983    0.976     0.143 
9984    0.976     0.143 
9985    0.976     0.143 
9986    0.976     0.142 
9987    0.976     0.142 
9988    0.976     0.141 
9989    0.976     0.141 
9990    0.976     0.141 
9991    0.976     0.140 
9992    0.976     0.140 
9993    0.976     0.140 
9994    0.976     0.139 
9995    0.976     0.139 
9996    0.976     0.138 
9997    0.976     0.138 
9998    0.976     0.138 
9999    0.976     0.137 
10000    0.976     0.137 
10001    0.976     0.137 
10002    0.976     0.136 
10003    0.976     0.136 
10004    0.976     0.136 
10005    0.976     0.135 
10006    0.976     0.135 
10007    0.976     0.135 
10008    0.976     0.134 
10009    0.976     0.134 
10010    0.976     0.134 
10011    0.976     0.133 
10012    0.976     0.133 
10013    0.976     0.133 
10014    0.976     0.132 
10015    0.976     0.132 
10016    0.976     0.132 
10017    0.976     0.131 
10018    0.976     0.131 
10019    0.976     0.131 
10020    0.976     0.130 
10021    0.976     0.130 
10022    0.976     0.130 
10023    0.976     0.129 
10024    0.976     0.129 
10025    0.976     0.129 
10026    0.976     0.128 
10027    0.976     0.128 
10028    0.976     0.128 
10029    0.976     0.127 
10030    0.976     0.127 
10031    0.976     0.127 
10032    0.976     0.126 
10033    0.976     0.126 
10034    0.976     0.126 
10035    0.976     0.125 
10036    0.976     0.125 
10037    0.976     0.125 
10038    0.976     0.124 
10039    0.976     0.124 
10040    0.976     0.124 
10041    0.976     0.123 
10042    0.976     0.123 
10043    0.976     0.123 
10044    0.976     0.122 
10045    0.976     0.122 
10046    0.976     0.122 
10047    0.976     0.121 
10048    0.976     0.121 
10049    0.976     0.121 
10050    0.976     0.120 
10051    0.976     0.120 
10052    0.976     0.120 
10053    0.976     0.119 
10054    0.976     0.119 
10055    0.976     0.119 
10056    0.976     0.118 
10057    0.976     0.118 
10058    0.976     0.118 
10059    0.976     0.117 
10060    0.976     0.117 
10061    0.976     0.117 
10062    0.976     0.116 
10063    0.976     0.116 
10064    0.976     0.116 
10065    0.976     0.115 
10066    0.976     0.115 
10067    0.976     0.115 
10068    0.976     0.114 
10069    0.976     0.114 
10070    0.976     0.114 
10071    0.976     0.113 
10072    0.976     0.113 
10073    0.976     0.113 
10074    0.976     0.112 
10075    0.976     0.112 
10076    0.976     0.112 
10077    0.976     0.111 
10078    0.976     0.111 
10079    0.976     0.111 
10080    0.976     0.110 
10081    0.976     0.110 
10082    0.976     0.110 
10083    0.976     0.109 
10084    0.976     0.109 
10085    0.976     0.109 
10086    0.976     0.108 
10087    0.976     0.108 
10088    0.976     0.108 
10089    0.976     0.107 
10090    0.976     0.107 
10091    0.976     0.107 
10092    0.976     0.106 
10093    0.976     0.106 
10094    0.976     0.106 
10095    0.976     0.105 
10096    0.976     0.105 
10097    0.976     0.105 
10098    0.976     0.104 
10099    0.976     0.104 
10100    0.976     0.104 
10101    0.976     0.103 
10102    0.976     0.103 
10103    0.976     0.103 
10104    0.976     0.103 
10105    0.976     0.102 
10106    0.976     0.102 
10107    0.976     0.102 
10108    0.976     0.102 
10109    0.976     0.101 
10110    0.976     0.101 
10111    0.976     0.101 
10112    0.976     0.100 
10113    0.976     0.100 
10114    0.976     0.100 
10115    0.976     0.100 
10116    0.976     0.099 
10117    0.976     0.099 
10118    0.976     0.099 
10119    0.976     0.099 
10120    0.976     0.098 
10121    0.976     0.098 
10122    0.976     0.098 
10123    0.976     0.098 
10124    0.976     0.097 
10125    0.976     0.097 
10126    0.976     0.097 
10127    0.976     0.096 
10128    0.976     0.096 
10129    0.976     0.096 
10130    0.976     0.096 
10131    0.976     0.095 
10132    0.976     0.095 
10133    0.976     0.095 
10134    0.976     0.095 
10135    0.976     0.094 
10136    0.976     0.094 
10137    0.976     0.094 
10138    0.976     0.093 
10139    0.976     0.093 
10140    0.976     0.093 
10141    0.976     0.093 
10142    0.976     0.092 
10143    0.976     0.092 
10144    0.976     0.092 
10145    0.976     0.092 
10146    0.976     0.091 
10147    0.976     0.091 
10148    0.976     0.091 
10149    0.976     0.090 
10150    0.976     0.090 
10151    0.976     0.090 
10152    0.976     0.090 
10153    0.976     0.089 
10154    0.976     0.089 
10155    0.976     0.089 
10156    0.976     0.089 
10157    0.976     0.088 
10158    0.976     0.088 
10159    0.976     0.088 
10160    0.976     0.087 
10161    0.976     0.087 
10162    0.976     0.087 
10163    0.976     0.087 
10164    0.976     0.086 
10165    0.976     0.086 
10166    0.976     0.086 
10167    0.976     0.086 
10168    0.976     0.085 
10169    0.976     0.085 
10170    0.976     0.085 
10171    0.976     0.085 
10172    0.976     0.084 
10173    0.976     0.084 
10174    0.976     0.084 
10175    0.976     0.083 
10176    0.976     0.083 
10177    0.976     0.083 
10178    0.976     0.083 
10179    0.976     0.082 
10180    0.976     0.082 
10181    0.976     0.082 
10182    0.976     0.082 
10183    0.976     0.081 
10184    0.976     0.081 
10185    0.976     0.081 
10186    0.976     0.080 
10187    0.976     0.080 
10188    0.976     0.080 
10189    0.976     0.080 
10190    0.976     0.079 
10191    0.976     0.079 
10192    0.976     0.079 
10193    0.976     0.079 
10194    0.976     0.078 
10195    0.976     0.078 
10196    0.976     0.078 
10197    0.976     0.077 
10198    0.976     0.077 
10199    0.976     0.077 
10200    0.976     0.077 
10201    0.976     0.076 
10202    0.976     0.076 
10203    0.976     0.076 
10204    0.976     0.076 
10205    0.976     0.076 
10206    0.976     0.075 
10207    0.976     0.075 
10208    0.976     0.075 
10209    0.976     0.075 
10210    0.976     0.075 
10211    0.976     0.074 
10212    0.976     0.074 
10213    0.976     0.074 
10214    0.976     0.074 
10215    0.976     0.073 
10216    0.976     0.073 
10217    0.976     0.073 
10218    0.976     0.073 
10219    0.976     0.073 
10220    0.976     0.072 
10221    0.976     0.072 
10222    0.976     0.072 
10223    0.976     0.072 
10224    0.976     0.072 
10225    0.976     0.071 
10226    0.976     0.071 
10227    0.976     0.071 
10228    0.976     0.071 
10229    0.976     0.071 
10230    0.976     0.070 
10231    0.976     0.070 
10232    0.976     0.070 
10233    0.976     0.070 
10234    0.976     0.069 
10235    0.976     0.069 
10236    0.976     0.069 
10237    0.976     0.069 
10238    0.976     0.069 
10239    0.976     0.068 
10240    0.976     0.068 
10241    0.976     0.068 
10242    0.976     0.068 
10243    0.976     0.068 
10244    0.976     0.067 
10245    0.976     0.067 
10246    0.976     0.067 
10247    0.976     0.067 
10248    0.976     0.066 
10249    0.976     0.066 
10250    0.976     0.066 
10251    0.976     0.066 
10252    0.976     0.066 
10253    0.976     0.065 
10254    0.976     0.065 
10255    0.976     0.065 
10256    0.976     0.065 
10257    0.976     0.065 
10258    0.976     0.064 
10259    0.976     0.064 
10260    0.976     0.064 
10261    0.976     0.064 
10262    0.976     0.064 
10263    0.976     0.063 
10264    0.976     0.063 
10265    0.976     0.063 
10266    0.976     0.063 
10267    0.976     0.062 
10268    0.976     0.062 
10269    0.976     0.062 
10270    0.976     0.062 
10271    0.976     0.062 
10272    0.976     0.061 
10273    0.976     0.061 
10274    0.976     0.061 
10275    0.976     0.061 
10276    0.976     0.061 
10277    0.976     0.060 
10278    0.976     0.060 
10279    0.976     0.060 
10280    0.976     0.060 
10281    0.976     0.060 
10282    0.976     0.059 
10283    0.976     0.059 
10284    0.976     0.059 
10285    0.976     0.059 
10286    0.976     0.058 
10287    0.976     0.058 
10288    0.976     0.058 
10289    0.976     0.058 
10290    0.976     0.058 
10291    0.976     0.057 
10292    0.976     0.057 
10293    0.976     0.057 
10294    0.976     0.057 
10295    0.976     0.057 
10296    0.976     0.056 
10297    0.976     0.056 
10298    0.976     0.056 
10299    0.976     0.056 
10300    0.976     0.056 
10301    0.976     0.055 
10302    0.976     0.055 
10303    0.976     0.055 
10304    0.976     0.055 
10305    0.976     0.055 
10306    0.976     0.054 
10307    0.976     0.054 
10308    0.976     0.054 
10309    0.976     0.054 
10310    0.976     0.054 
10311    0.976     0.054 
10312    0.976     0.053 
10313    0.976     0.053 
10314    0.976     0.053 
10315    0.976     0.053 
10316    0.976     0.053 
10317    0.976     0.053 
10318    0.976     0.052 
10319    0.976     0.052 
10320    0.975     0.052 
10321    0.976     0.052 
10322    0.976     0.052 
10323    0.976     0.052 
10324    0.975     0.051 
10325    0.976     0.051 
10326    0.976     0.051 
10327    0.976     0.051 
10328    0.975     0.051 
10329    0.975     0.050 
10330    0.975     0.050 
10331    0.975     0.050 
10332    0.975     0.050 
10333    0.975     0.050 
10334    0.975     0.050 
10335    0.975     0.049 
10336    0.976     0.049 
10337    0.975     0.049 
10338    0.975     0.049 
10339    0.975     0.049 
10340    0.976     0.049 
10341    0.975     0.048 
10342    0.975     0.048 
10343    0.975     0.048 
10344    0.976     0.048 
10345    0.975     0.048 
10346    0.975     0.048 
10347    0.975     0.047 
10348    0.975     0.047 
10349    0.975     0.047 
10350    0.975     0.047 
10351    0.975     0.047 
10352    0.975     0.047 
10353    0.975     0.046 
10354    0.975     0.046 
10355    0.975     0.046 
10356    0.975     0.046 
10357    0.975     0.046 
10358    0.975     0.046 
10359    0.975     0.045 
10360    0.975     0.045 
10361    0.975     0.045 
10362    0.975     0.045 
10363    0.975     0.045 
10364    0.975     0.044 
10365    0.975     0.044 
10366    0.975     0.044 
10367    0.975     0.044 
10368    0.975     0.044 
10369    0.975     0.044 
10370    0.975     0.043 
10371    0.975     0.043 
10372    0.975     0.043 
10373    0.975     0.043 
10374    0.975     0.043 
10375    0.975     0.043 
10376    0.975     0.042 
10377    0.975     0.042 
10378    0.975     0.042 
10379    0.975     0.042 
10380    0.975     0.042 
10381    0.975     0.042 
10382    0.975     0.041 
10383    0.975     0.041 
10384    0.975     0.041 
10385    0.975     0.041 
10386    0.975     0.041 
10387    0.975     0.041 
10388    0.975     0.040 
10389    0.975     0.040 
10390    0.975     0.040 
10391    0.975     0.040 
10392    0.975     0.040 
10393    0.975     0.039 
10394    0.975     0.039 
10395    0.975     0.039 
10396    0.975     0.039 
10397    0.975     0.039 
10398    0.975     0.039 
10399    0.975     0.038 
10400    0.975     0.038 
10401    0.975     0.038 
10402    0.975     0.038 
10403    0.975     0.038 
10404    0.975     0.038 
10405    0.975     0.038 
10406    0.975     0.037 
10407    0.975     0.037 
10408    0.975     0.037 
10409    0.975     0.037 
10410    0.975     0.037 
10411    0.975     0.037 
10412    0.975     0.037 
10413    0.975     0.037 
10414    0.975     0.036 
10415    0.975     0.036 
10416    0.975     0.036 
10417    0.975     0.036 
10418    0.975     0.036 
10419    0.975     0.036 
10420    0.975     0.036 
10421    0.975     0.035 
10422    0.975     0.035 
10423    0.975     0.035 
10424    0.975     0.035 
10425    0.975     0.035 
10426    0.975     0.035 
10427    0.975     0.035 
10428    0.975     0.035 
10429    0.975     0.034 
10430    0.975     0.034 
10431    0.975     0.034 
10432    0.975     0.034 
10433    0.975     0.034 
10434    0.975     0.034 
10435    0.975     0.034 
10436    0.975     0.033 
10437    0.975     0.033 
10438    0.975     0.033 
10439    0.975     0.033 
10440    0.975     0.033 
10441    0.975     0.033 
10442    0.975     0.033 
10443    0.975     0.032 
10444    0.975     0.032 
10445    0.975     0.032 
10446    0.975     0.032 
10447    0.975     0.032 
10448    0.975     0.032 
10449    0.975     0.032 
10450    0.975     0.032 
10451    0.975     0.031 
10452    0.975     0.031 
10453    0.975     0.031 
10454    0.975     0.031 
10455    0.975     0.031 
10456    0.975     0.031 
10457    0.975     0.031 
10458    0.975     0.030 
10459    0.975     0.030 
10460    0.975     0.030 
10461    0.975     0.030 
10462    0.975     0.030 
10463    0.975     0.030 
10464    0.975     0.030 
10465    0.975     0.030 
10466    0.975     0.029 
10467    0.975     0.029 
10468    0.975     0.029 
10469    0.975     0.029 
10470    0.975     0.029 
10471    0.975     0.029 
10472    0.975     0.029 
10473    0.975     0.028 
10474    0.975     0.028 
10475    0.975     0.028 
10476    0.974     0.028 
10477    0.975     0.028 
10478    0.975     0.028 
10479    0.975     0.028 
10480    0.974     0.028 
10481    0.975     0.027 
10482    0.975     0.027 
10483    0.975     0.027 
10484    0.974     0.027 
10485    0.974     0.027 
10486    0.974     0.027 
10487    0.974     0.027 
10488    0.975     0.026 
10489    0.974     0.026 
10490    0.974     0.026 
10491    0.974     0.026 
10492    0.974     0.026 
10493    0.974     0.026 
10494    0.974     0.026 
10495    0.974     0.026 
10496    0.974     0.025 
10497    0.974     0.025 
10498    0.974     0.025 
10499    0.974     0.025 
10500    0.974     0.025 
10501    0.974     0.025 
10502    0.974     0.025 
10503    0.974     0.025 
10504    0.974     0.024 
10505    0.974     0.024 
10506    0.974     0.024 
10507    0.974     0.024 
10508    0.974     0.024 
10509    0.974     0.024 
10510    0.974     0.024 
10511    0.974     0.024 
10512    0.974     0.024 
10513    0.974     0.024 
10514    0.974     0.024 
10515    0.974     0.023 
10516    0.974     0.023 
10517    0.974     0.023 
10518    0.974     0.023 
10519    0.974     0.023 
10520    0.974     0.023 
10521    0.974     0.023 
10522    0.974     0.023 
10523    0.974     0.023 
10524    0.974     0.023 
10525    0.974     0.022 
10526    0.974     0.022 
10527    0.974     0.022 
10528    0.974     0.022 
10529    0.974     0.022 
10530    0.974     0.022 
10531    0.974     0.022 
10532    0.974     0.022 
10533    0.974     0.022 
10534    0.974     0.022 
10535    0.974     0.022 
10536    0.974     0.021 
10537    0.974     0.021 
10538    0.974     0.021 
10539    0.974     0.021 
10540    0.974     0.021 
10541    0.974     0.021 
10542    0.974     0.021 
10543    0.974     0.021 
10544    0.974     0.021 
10545    0.974     0.021 
10546    0.974     0.020 
10547    0.974     0.020 
10548    0.974     0.020 
10549    0.974     0.020 
10550    0.974     0.020 
10551    0.974     0.020 
10552    0.974     0.020 
10553    0.974     0.020 
10554    0.974     0.020 
10555    0.974     0.020 
10556    0.974     0.020 
10557    0.974     0.019 
10558    0.974     0.019 
10559    0.974     0.019 
10560    0.974     0.019 
10561    0.974     0.019 
10562    0.974     0.019 
10563    0.974     0.019 
10564    0.974     0.019 
10565    0.974     0.019 
10566    0.974     0.019 
10567    0.974     0.018 
10568    0.974     0.018 
10569    0.974     0.018 
10570    0.974     0.018 
10571    0.974     0.018 
10572    0.974     0.018 
10573    0.974     0.018 
10574    0.974     0.018 
10575    0.974     0.018 
10576    0.974     0.018 
10577    0.974     0.018 
10578    0.974     0.017 
10579    0.974     0.017 
10580    0.974     0.017 
10581    0.974     0.017 
10582    0.974     0.017 
10583    0.974     0.017 
10584    0.974     0.017 
10585    0.974     0.017 
10586    0.974     0.017 
10587    0.974     0.017 
10588    0.974     0.016 
10589    0.974     0.016 
10590    0.974     0.016 
10591    0.974     0.016 
10592    0.974     0.016 
10593    0.974     0.016 
10594    0.974     0.016 
10595    0.974     0.016 
10596    0.974     0.016 
10597    0.974     0.016 
10598    0.974     0.016 
10599    0.974     0.015 
10600    0.974     0.015 
10601    0.974     0.015 
10602    0.974     0.015 
10603    0.974     0.015 
10604    0.974     0.015 
10605    0.974     0.015 
10606    0.974     0.015 
10607    0.974     0.015 
10608    0.974     0.015 
10609    0.974     0.015 
10610    0.974     0.015 
10611    0.974     0.015 
10612    0.974     0.015 
10613    0.974     0.014 
10614    0.974     0.014 
10615    0.974     0.014 
10616    0.974     0.014 
10617    0.974     0.014 
10618    0.974     0.014 
10619    0.974     0.014 
10620    0.974     0.014 
10621    0.974     0.014 
10622    0.974     0.014 
10623    0.974     0.014 
10624    0.974     0.014 
10625    0.974     0.014 
10626    0.974     0.014 
10627    0.974     0.014 
10628    0.974     0.013 
10629    0.974     0.013 
10630    0.974     0.013 
10631    0.974     0.013 
10632    0.974     0.013 
10633    0.974     0.013 
10634    0.974     0.013 
10635    0.974     0.013 
10636    0.974     0.013 
10637    0.974     0.013 
10638    0.974     0.013 
10639    0.974     0.013 
10640    0.974     0.013 
10641    0.974     0.013 
10642    0.974     0.013 
10643    0.974     0.012 
10644    0.974     0.012 
10645    0.974     0.012 
10646    0.974     0.012 
10647    0.974     0.012 
10648    0.974     0.012 
10649    0.974     0.012 
10650    0.974     0.012 
10651    0.974     0.012 
10652    0.974     0.012 
10653    0.974     0.012 
10654    0.974     0.012 
10655    0.974     0.012 
10656    0.974     0.012 
10657    0.974     0.012 
10658    0.974     0.011 
10659    0.974     0.011 
10660    0.974     0.011 
10661    0.974     0.011 
10662    0.974     0.011 
10663    0.974     0.011 
10664    0.974     0.011 
10665    0.974     0.011 
10666    0.974     0.011 
10667    0.974     0.011 
10668    0.974     0.011 
10669    0.974     0.011 
10670    0.974     0.011 
10671    0.974     0.011 
10672    0.974     0.011 
10673    0.974     0.010 
10674    0.974     0.010 
10675    0.974     0.010 
10676    0.974     0.010 
10677    0.974     0.010 
10678    0.974     0.010 
10679    0.974     0.010 
10680    0.974     0.010 
10681    0.974     0.010 
10682    0.974     0.010 
10683    0.974     0.010 
10684    0.974     0.010 
10685    0.974     0.010 
10686    0.974     0.010 
10687    0.974     0.010 
10688    0.974     0.009 
10689    0.974     0.009 
10690    0.974     0.009 
10691    0.974     0.009 
10692    0.974     0.009 
10693    0.974     0.009 
10694    0.974     0.009 
10695    0.974     0.009 
10696    0.974     0.009 
10697    0.974     0.009 
10698    0.974     0.009 
10699    0.974     0.009 
10700    0.974     0.009 
10701    0.974     0.009 
10702    0.974     0.009 
10703    0.974     0.009 
10704    0.974     0.008 
10705    0.974     0.008 
10706    0.974     0.008 
10707    0.974     0.008 
10708    0.974     0.008 
10709    0.974     0.008 
10710    0.974     0.008 
10711    0.974     0.008 
10712    0.974     0.008 
10713    0.974     0.008 
10714    0.974     0.008 
10715    0.974     0.008 
10716    0.974     0.008 
10717    0.974     0.008 
10718    0.974     0.008 
10719    0.974     0.008 
10720    0.974     0.008 
10721    0.974     0.008 
10722    0.974     0.008 
10723    0.974     0.008 
10724    0.974     0.008 
10725    0.974     0.008 
10726    0.974     0.008 
10727    0.974     0.008 
10728    0.974     0.008 
10729    0.974     0.008 
10730    0.974     0.007 
10731    0.974     0.007 
10732    0.974     0.007 
10733    0.974     0.007 
10734    0.974     0.007 
10735    0.974     0.007 
10736    0.974     0.007 
10737    0.974     0.007 
10738    0.974     0.007 
10739    0.974     0.007 
10740    0.974     0.007 
10741    0.974     0.007 
10742    0.974     0.007 
10743    0.974     0.007 
10744    0.974     0.007 
10745    0.974     0.007 
10746    0.974     0.007 
10747    0.974     0.007 
10748    0.974     0.007 
10749    0.974     0.007 
10750    0.974     0.007 
10751    0.974     0.007 
10752    0.974     0.007 
10753    0.974     0.007 
10754    0.974     0.007 
10755    0.974     0.007 
10756    0.974     0.006 
10757    0.974     0.006 
10758    0.974     0.006 
10759    0.974     0.006 
10760    0.974     0.006 
10761    0.974     0.006 
10762    0.974     0.006 
10763    0.974     0.006 
10764    0.974     0.006 
10765    0.974     0.006 
10766    0.974     0.006 
10767    0.974     0.006 
10768    0.974     0.006 
10769    0.974     0.006 
10770    0.974     0.006 
10771    0.974     0.006 
10772    0.974     0.006 
10773    0.974     0.006 
10774    0.974     0.006 
10775    0.974     0.006 
10776    0.974     0.006 
10777    0.974     0.006 
10778    0.974     0.006 
10779    0.974     0.006 
10780    0.974     0.006 
10781    0.974     0.006 
10782    0.974     0.005 
10783    0.974     0.005 
10784    0.974     0.005 
10785    0.974     0.005 
10786    0.974     0.005 
10787    0.974     0.005 
10788    0.974     0.005 
10789    0.974     0.005 
10790    0.974     0.005 
10791    0.974     0.005 
10792    0.974     0.005 
10793    0.974     0.005 
10794    0.974     0.005 
10795    0.974     0.005 
10796    0.974     0.005 
10797    0.974     0.005 
10798    0.974     0.005 
10799    0.974     0.005 
10800    0.974     0.005 
10801    0.974     0.005 
10802    0.974     0.005 
10803    0.974     0.005 
10804    0.974     0.005 
10805    0.974     0.005 
10806    0.974     0.005 
10807    0.974     0.005 
10808    0.974     0.005 
10809    0.974     0.005 
10810    0.974     0.005 
10811    0.974     0.005 
10812    0.974     0.005 
10813    0.974     0.005 
10814    0.974     0.005 
10815    0.974     0.005 
10816    0.974     0.005 
10817    0.974     0.004 
10818    0.974     0.004 
10819    0.974     0.004 
10820    0.974     0.004 
10821    0.974     0.004 
10822    0.974     0.004 
10823    0.974     0.004 
10824    0.974     0.004 
10825    0.974     0.004 
10826    0.974     0.004 
10827    0.974     0.004 
10828    0.974     0.004 
10829    0.974     0.004 
10830    0.974     0.004 
10831    0.974     0.004 
10832    0.974     0.004 
10833    0.974     0.004 
10834    0.974     0.004 
10835    0.974     0.004 
10836    0.974     0.004 
10837    0.974     0.004 
10838    0.974     0.004 
10839    0.974     0.004 
10840    0.974     0.004 
10841    0.974     0.004 
10842    0.974     0.004 
10843    0.974     0.004 
10844    0.974     0.004 
10845    0.974     0.004 
10846    0.974     0.004 
10847    0.974     0.004 
10848    0.974     0.004 
10849    0.974     0.004 
10850    0.974     0.004 
10851    0.974     0.004 
10852    0.974     0.004 
10853    0.974     0.004 
10854    0.974     0.004 
10855    0.974     0.004 
10856    0.974     0.004 
10857    0.974     0.004 
10858    0.974     0.004 
10859    0.974     0.004 
10860    0.974     0.004 
10861    0.974     0.004 
10862    0.974     0.004 
10863    0.974     0.004 
10864    0.974     0.004 
10865    0.974     0.004 
10866    0.974     0.004 
10867    0.974     0.004 
10868    0.974     0.004 
10869    0.974     0.003 
10870    0.974     0.003 
10871    0.974     0.003 
10872    0.974     0.003 
10873    0.974     0.003 
10874    0.974     0.003 
10875    0.974     0.003 
10876    0.974     0.003 
10877    0.974     0.003 
10878    0.974     0.003 
10879    0.974     0.003 
10880    0.974     0.003 
10881    0.974     0.003 
10882    0.974     0.003 
10883    0.974     0.003 
10884    0.974     0.003 
10885    0.974     0.003 
10886    0.974     0.003 
10887    0.974     0.003 
10888    0.974     0.003 
10889    0.974     0.003 
10890    0.974     0.003 
10891    0.974     0.003 
10892    0.974     0.003 
10893    0.974     0.003 
10894    0.974     0.003 
10895    0.974     0.003 
10896    0.974     0.003 
10897    0.974     0.003 
10898    0.974     0.003 
10899    0.974     0.003 
10900    0.974     0.003 
10901    0.974     0.003 
10902    0.974     0.003 
10903    0.974     0.003 
10904    0.974     0.003 
10905    0.974     0.003 
10906    0.974     0.003 
10907    0.974     0.003 
10908    0.974     0.003 
10909    0.974     0.003 
10910    0.974     0.003 
10911    0.974     0.003 
10912    0.974     0.003 
10913    0.974     0.003 
10914    0.974     0.002 
10915    0.974     0.002 
10916    0.974     0.002 
10917    0.974     0.002 
10918    0.974     0.002 
10919    0.974     0.002 
10920    0.974     0.002 
10921    0.974     0.002 
10922    0.974     0.002 
10923    0.974     0.002 
10924    0.974     0.002 
10925    0.974     0.002 
10926    0.974     0.002 
10927    0.974     0.002 
10928    0.974     0.002 
10929    0.974     0.002 
10930    0.974     0.002 
10931    0.974     0.002 
10932    0.974     0.002 
10933    0.974     0.002 
10934    0.974     0.002 
10935    0.974     0.002 
10936    0.974     0.002 
10937    0.974     0.002 
10938    0.974     0.002 
10939    0.974     0.002 
10940    0.974     0.002 
10941    0.974     0.002 
10942    0.974     0.002 
10943    0.974     0.002 
10944    0.974     0.002 
10945    0.974     0.002 
10946    0.974     0.002 
10947    0.974     0.002 
10948    0.974     0.002 
10949    0.974     0.001 
10950    0.974     0.001 
10951    0.974     0.001 
10952    0.974     0.001 
10953    0.974     0.001 
10954    0.974     0.001 
10955    0.974     0.001 
10956    0.974     0.001 
10957    0.974     0.001 
10958    0.974     0.001 
10959    0.974     0.001 
10960    0.974     0.001 
10961    0.974     0.001 
10962    0.974     0.001 
10963    0.974     0.001 
10964    0.974     0.001 
10965    0.974     0.001 
10966    0.974     0.001 
10967    0.974     0.001 
10968    0.974     0.001 
10969    0.974     0.001 
10970    0.974     0.001 
10971    0.974     0.001 
10972    0.974     0.001 
10973    0.974     0.001 
10974    0.974     0.001 
10975    0.974     0.001 
10976    0.974     0.001 
10977    0.974     0.001 
10978    0.974     0.001 
10979    0.974     0.001 
10980    0.974     0.001 
10981    0.974     0.001 
10982    0.974     0.001 
10983    0.974     0.000 
10984    0.974     0.000 
10985    0.974     0.000 
10986    0.974     0.000 
10987    0.974     0.000 
10988    0.974     0.000 
10989    0.974     0.000 
10990    0.974     0.000 
10991    0.974     0.000 
10992    0.974     0.000 
10993    0.974     0.000 
10994    0.974     0.000 
10995    0.974     0.000 
10996    0.974     0.000 
10997    0.974     0.000 
10998    0.974     0.000 
10999    0.974     0.000 
11000    0.974     0.000 
