3520.0  1.05662351461e-05  
3540.0  1.11974312006e-05  
3560.0  7.14562159515e-06  
3580.0  7.5079653967e-06  
3600.0  1.30146690936e-05  
3620.0  1.38028731218e-05  
3640.0  2.05890060297e-05  
3660.0  2.48380535655e-05  
3680.0  3.61294547736e-05  
3700.0  6.23037088187e-05  
3720.0  0.000109618949244  
3740.0  0.000199949970673  
3760.0  0.000327522935888  
3780.0  0.000491970035612  
3800.0  0.000675214765614  
3820.0  0.000874491994667  
3840.0  0.00108705013344  
3860.0  0.0013333787852  
3880.0  0.00163701532667  
3900.0  0.00199797489351  
3920.0  0.00242883547525  
3940.0  0.00296678000027  
3960.0  0.00365885271798  
3980.0  0.00458121738252  
4000.0  0.00596345778674  
4020.0  0.00845111505234  
4040.0  0.0132376896907  
4060.0  0.0226737589025  
4080.0  0.0413950873467  
4100.0  0.0744449642865  
4120.0  0.124698650327  
4140.0  0.191003789  
4160.0  0.26342309047  
4180.0  0.329222091333  
4200.0  0.377583728854  
4220.0  0.404765310732  
4240.0  0.417464718958  
4260.0  0.424212726788  
4280.0  0.431545525783  
4300.0  0.440051441263  
4320.0  0.446521103925  
4340.0  0.450236125679  
4360.0  0.451577934081  
4380.0  0.453467926818  
4400.0  0.457751602265  
4420.0  0.464259302118  
4440.0  0.471598255412  
4460.0  0.477627687803  
4480.0  0.481604331814  
4500.0  0.483849261245  
4520.0  0.485789723402  
4540.0  0.48969026512  
4560.0  0.496014862126  
4580.0  0.50360171136  
4600.0  0.510537217055  
4620.0  0.514856595428  
4640.0  0.516130411419  
4660.0  0.514838336723  
4680.0  0.5123213141  
4700.0  0.510599756767  
4720.0  0.511053849401  
4740.0  0.514210423944  
4760.0  0.519511024307  
4780.0  0.525861886923  
4800.0  0.531739986111  
4820.0  0.536084463132  
4840.0  0.53857827198  
4860.0  0.53965948137  
4880.0  0.540506735279  
4900.0  0.541579487616  
4920.0  0.542114078059  
4940.0  0.540390700525  
4960.0  0.534781338654  
4980.0  0.525786088363  
5000.0  0.51602920936  
5020.0  0.508735204395  
5040.0  0.505529103337  
5060.0  0.505074442494  
5080.0  0.504394959377  
5100.0  0.501747412904  
5120.0  0.497139354532  
5140.0  0.491516239335  
5160.0  0.486862943645  
5180.0  0.484864291657  
5200.0  0.486768377716  
5220.0  0.492769276463  
5240.0  0.501570537414  
5260.0  0.509912009691  
5280.0  0.513338462906  
5300.0  0.511343673123  
5320.0  0.506747634254  
5340.0  0.50282232229  
5360.0  0.504005299536  
5380.0  0.509171698192  
5400.0  0.513495455949  
5420.0  0.510743642618  
5440.0  0.497374251371  
5460.0  0.474632452129  
5480.0  0.44796369817  
5500.0  0.423391065339  
5520.0  0.403979999323  
5540.0  0.387237747452  
5560.0  0.367484804629  
5580.0  0.339386248686  
5600.0  0.300703441877  
5620.0  0.252797464198  
5640.0  0.200220154234  
5660.0  0.148690065897  
5680.0  0.10370632721  
5700.0  0.0681136598048  
5720.0  0.04268497145  
5740.0  0.0259748753032  
5760.0  0.0154243796887  
5780.0  0.00893109298197  
5800.0  0.00514259548524  
5820.0  0.00302680372868  
5840.0  0.001824507439  
5860.0  0.00115276602  
5880.0  0.000826588908441  
5900.0  0.00068938815913  
5920.0  0.000651627813763  
5940.0  0.00064399672237  
5960.0  0.000625774932532  
5980.0  0.000587544120255  
