5878.47700596  0.00131404769842  
5883.47700596  0.00210540525065  
5888.47700596  0.00345896765957  
5893.47700596  0.00583857994122  
5898.47700596  0.010117559319  
5903.47700596  0.0180443747742  
5908.47700596  0.0330011023686  
5913.47700596  0.0611630788209  
5918.47700596  0.111886650448  
5923.47700596  0.193549742561  
5928.47700596  0.302759084382  
5933.47700596  0.418630594984  
5938.47700596  0.514283932184  
5943.47700596  0.575003793923  
5948.47700596  0.604727890864  
5953.47700596  0.617113584368  
5958.47700596  0.622163679883  
5963.47700596  0.622726726627  
5968.47700596  0.623290041157  
5973.47700596  0.623853623492  
5978.47700596  0.624417473652  
5983.47700596  0.625004719117  
5988.47700596  0.625602383748  
5993.47700596  0.626200341087  
5998.47700596  0.626798591157  
6003.47700596  0.627300931604  
6008.47700596  0.627784483956  
6013.47700596  0.628278319933  
6018.47700596  0.628772272072  
6023.47700596  0.629266340361  
6028.47700596  0.629760524785  
6033.47700596  0.630256190642  
6038.47700596  0.630752552681  
6046.90328996  0.631589264886  
6051.90328996  0.618079842309  
6056.90328996  0.585972430748  
6061.90328996  0.523945859934  
6066.90328996  0.429477876095  
6071.90328996  0.316434007833  
6076.90328996  0.208838458835  
6081.90328996  0.125920568607  
6086.90328996  0.0720712934394  
6091.90328996  0.0406634514949  
6096.90328996  0.0231773519163  
6101.90328996  0.013501528909  
6106.90328996  0.00807397266831  
6111.90328996  0.00495856256289  
6116.90328996  0.00312394857975  
6121.90328996  0.00201552038767  
6126.90328996  0.00132929489776  
