4478.47700596  0.00105906041115  
4483.47700596  0.00169866751236  
4488.47700596  0.00279361894803  
4493.47700596  0.00472036351824  
4498.47700596  0.00818824980838  
4503.47700596  0.0146150661113  
4508.47700596  0.026745587409  
4513.47700596  0.0495978513619  
4518.47700596  0.0907823318489  
4523.47700596  0.157132096163  
4528.47700596  0.245933925561  
4533.47700596  0.34023305442  
4538.47700596  0.418178638211  
4543.47700596  0.467781134837  
4548.47700596  0.49220367637  
4553.47700596  0.502530676649  
4558.47700596  0.50686148319  
4563.47700596  0.507525731313  
4568.47700596  0.508190433414  
4573.47700596  0.508855589621  
4578.47700596  0.509521200061  
4583.47700596  0.51017732468  
4588.47700596  0.51082953822  
4593.47700596  0.51148219271  
4598.47700596  0.512135288273  
4603.47700596  0.512772217573  
4608.47700596  0.513402462749  
4613.47700596  0.514033180327  
4618.47700596  0.51466428485  
4623.47700596  0.515295776398  
4628.47700596  0.515927655055  
4633.47700596  0.51654422673  
4638.47700596  0.517154284471  
4646.90328996  0.518183193177  
4651.90328996  0.507298533904  
4656.90328996  0.481124213605  
4661.90328996  0.430340456672  
4666.90328996  0.352867960303  
4671.90328996  0.260075944146  
4676.90328996  0.171701088184  
4681.90328996  0.10356183315  
4686.90328996  0.0592922171373  
4691.90328996  0.0334635404113  
4696.90328996  0.019079355102  
4701.90328996  0.0111175450926  
4706.90328996  0.00665010740898  
4711.90328996  0.00408518296097  
4716.90328996  0.00257438730878  
4721.90328996  0.00166138950819  
4726.90328996  0.00109602340771  
