4778.47700596  0.0011398422071  
4783.47700596  0.00182687058547  
4788.47700596  0.00300227125525  
4793.47700596  0.0050692291227  
4798.47700596  0.00878702034372  
4803.47700596  0.0156752843788  
4808.47700596  0.0286736756441  
4813.47700596  0.0531518639308  
4818.47700596  0.0972482117447  
4823.47700596  0.168255818924  
4828.47700596  0.263238115567  
4833.47700596  0.36402901157  
4838.47700596  0.447252096984  
4843.47700596  0.500108833643  
4848.47700596  0.526015072385  
4853.47700596  0.536843448329  
4858.47700596  0.541281932572  
4863.47700596  0.541812712792  
4868.47700596  0.542343802869  
4873.47700596  0.542875202873  
4878.47700596  0.543406912874  
4883.47700596  0.543928527436  
4888.47700596  0.544445882153  
4893.47700596  0.544963532713  
4898.47700596  0.545481479184  
4903.47700596  0.545962437213  
4908.47700596  0.546406343474  
4913.47700596  0.546841268378  
4918.47700596  0.547276383176  
4923.47700596  0.547711687888  
4928.47700596  0.548147182535  
4933.47700596  0.54856040532  
4938.47700596  0.548963957201  
4946.90328996  0.549644416439  
4951.90328996  0.537860191618  
4956.90328996  0.509893887846  
4961.90328996  0.455897142655  
4966.90328996  0.373679425342  
4971.90328996  0.27530846923  
4976.90328996  0.181687490717  
4981.90328996  0.109543002262  
4986.90328996  0.062692555025  
4991.90328996  0.0353690732537  
4996.90328996  0.0201580790247  
5001.90328996  0.0117407968708  
5006.90328996  0.00701900686335  
5011.90328996  0.00430947793635  
5016.90328996  0.00271427161245  
5021.90328996  0.00175072235731  
5026.90328996  0.00115433580183  
