5178.47700596  0.0012100824692  
5183.47700596  0.00193890321968  
5188.47700596  0.00318549154297  
5193.47700596  0.00537708279695  
5198.47700596  0.00931804500025  
5203.47700596  0.0166164022077  
5208.47700596  0.0303832388759  
5213.47700596  0.0562991733565  
5218.47700596  0.10296700133  
5223.47700596  0.178081808864  
5228.47700596  0.278503954304  
5233.47700596  0.384994757286  
5238.47700596  0.472834155654  
5243.47700596  0.528516698295  
5248.47700596  0.555686958336  
5253.47700596  0.566914541715  
5258.47700596  0.571399236453  
5263.47700596  0.571761841032  
5268.47700596  0.572124571457  
5273.47700596  0.572487427737  
5278.47700596  0.572850409879  
5283.47700596  0.573213542417  
5288.47700596  0.573576811599  
5293.47700596  0.573940206696  
5298.47700596  0.574303727715  
5303.47700596  0.574773041715  
5308.47700596  0.575288942179  
5313.47700596  0.575805153708  
5318.47700596  0.576321662773  
5323.47700596  0.576838469448  
5328.47700596  0.577355573806  
5333.47700596  0.577862860735  
5338.47700596  0.578365999952  
5346.90328996  0.579214553047  
5351.90328996  0.566872786665  
5356.90328996  0.537464857448  
5361.90328996  0.480600131421  
5366.90328996  0.393969808933  
5371.90328996  0.290288652774  
5376.90328996  0.19159414805  
5381.90328996  0.115530768621  
5386.90328996  0.0661301607639  
5391.90328996  0.037314519298  
5396.90328996  0.0212703116252  
5401.90328996  0.0123901078221  
5406.90328996  0.00740767132748  
5411.90328996  0.004548483492  
5416.90328996  0.00286504338025  
5421.90328996  0.00184812407382  
5426.90328996  0.00121865836362  
