4878.47700596  0.00116269529862  
4883.47700596  0.00186345616544  
4888.47700596  0.00306230109094  
4893.47700596  0.00517042766016  
4898.47700596  0.00896216184077  
4903.47700596  0.0159856865757  
4908.47700596  0.0292353909874  
4913.47700596  0.0541809283614  
4918.47700596  0.0991087572628  
4923.47700596  0.171436393015  
4928.47700596  0.26815400068  
4933.47700596  0.370738225904  
4938.47700596  0.455382897097  
4943.47700596  0.509075128326  
4948.47700596  0.535314034647  
4953.47700596  0.546199439172  
4958.47700596  0.550579850407  
4963.47700596  0.550984289612  
4968.47700596  0.551388892766  
4973.47700596  0.551793659882  
4978.47700596  0.552198590976  
4983.47700596  0.552582567489  
4988.47700596  0.552957438342  
4993.47700596  0.553332450406  
4998.47700596  0.553707603691  
5003.47700596  0.55403178108  
5008.47700596  0.554323064102  
5013.47700596  0.554609763552  
5018.47700596  0.554896508257  
5023.47700596  0.555183298195  
5028.47700596  0.555470133344  
5033.47700596  0.555756304277  
5038.47700596  0.556042208688  
5046.90328996  0.556524130628  
5051.90328996  0.5444721068  
5056.90328996  0.516042621548  
5061.90328996  0.461280189082  
5066.90328996  0.377997838215  
5071.90328996  0.278420961583  
5076.90328996  0.183695975979  
5081.90328996  0.110728812411  
5086.90328996  0.0633589805001  
5091.90328996  0.0357381538643  
5096.90328996  0.0203645029865  
5101.90328996  0.0118603282892  
5106.90328996  0.00709167011503  
5111.90328996  0.00435490440875  
5116.90328996  0.00274339519476  
5121.90328996  0.00176983772461  
5126.90328996  0.00116715741609  
