5020.0  0.00146965170817  
5040.0  0.00138483247908  
5060.0  0.00130772077719  
5080.0  0.00124817441201  
5100.0  0.0011976910311  
5120.0  0.00114742786623  
5140.0  0.00109739324463  
5160.0  0.00106462948954  
5180.0  0.00104939709767  
5200.0  0.00105234364131  
5220.0  0.00109104610733  
5240.0  0.00116604715291  
5260.0  0.00126870157919  
5280.0  0.00142674553436  
5300.0  0.00163990498729  
5320.0  0.00192918576266  
5340.0  0.00232081120498  
5360.0  0.00283562755568  
5380.0  0.00356556538676  
5400.0  0.00458767500686  
5420.0  0.00607578200651  
5440.0  0.00829946955565  
5460.0  0.0116263710678  
5480.0  0.0165981783036  
5500.0  0.0238864545117  
5520.0  0.0343412534199  
5540.0  0.0489165640982  
5560.0  0.0685492275397  
5580.0  0.0940765239642  
5600.0  0.126095329977  
5620.0  0.164824815452  
5640.0  0.209897209053  
5660.0  0.260155941414  
5680.0  0.313128157458  
5700.0  0.365011256373  
5720.0  0.411590996809  
5740.0  0.448721122799  
5760.0  0.473777864231  
5780.0  0.486784125796  
5800.0  0.489982701337  
5820.0  0.487056898282  
5840.0  0.482639227902  
5860.0  0.480016304646  
5880.0  0.481284158647  
5900.0  0.486049840097  
5920.0  0.493073245292  
5940.0  0.500323193124  
5960.0  0.506625573504  
5980.0  0.512160608959  
6000.0  0.518096543519  
6020.0  0.525060950935  
6040.0  0.534255233785  
6060.0  0.545869703162  
6080.0  0.558934084744  
6100.0  0.572607505328  
6120.0  0.585343877579  
6140.0  0.596268075752  
6160.0  0.604942710597  
6180.0  0.611507109422  
6200.0  0.617236072804  
6220.0  0.622649547922  
6240.0  0.628486622507  
6260.0  0.634795920318  
6280.0  0.640716738246  
6300.0  0.645774435217  
6320.0  0.649788669882  
6340.0  0.652543701364  
6360.0  0.654136092868  
6380.0  0.654505039007  
6400.0  0.653441522363  
6420.0  0.651100616467  
6440.0  0.647738722599  
6460.0  0.643934062839  
6480.0  0.639964246221  
6500.0  0.635501242502  
6520.0  0.629822321644  
6540.0  0.621830702353  
6560.0  0.610176210789  
6580.0  0.594360833819  
6600.0  0.574347329475  
6620.0  0.550688543093  
6640.0  0.525233079871  
6660.0  0.500186424227  
6680.0  0.478501089982  
6700.0  0.462896252692  
6720.0  0.455450886112  
6740.0  0.457662062311  
6760.0  0.470131660861  
6780.0  0.492013186834  
6800.0  0.513483958625  
6820.0  0.519455029225  
6840.0  0.495603781916  
6860.0  0.436106412211  
6880.0  0.350429041351  
6900.0  0.257946826156  
6920.0  0.171019596998  
6940.0  0.102435756085  
6960.0  0.0566035877892  
6980.0  0.0304267257559  
7000.0  0.0168825159851  
7020.0  0.0101219396768  
7040.0  0.00646674040841  
7060.0  0.00428450477927  
7080.0  0.00288575623903  
7100.0  0.00200340330904  
7120.0  0.0014209329628  
7140.0  0.00101288650644  
7160.0  0.00073186399298  
7180.0  0.000552262756366  
7200.0  0.000443394246688  
7220.0  0.000373131733128  
7240.0  0.000317082703841  
7260.0  0.000267216659806  
7280.0  0.000226261352164  
7300.0  0.000197751113567  
7320.0  0.000170687223205  
7340.0  0.000162779034798  
7360.0  0.000143171371664  
7380.0  0.000132059512255  
7400.0  0.000121987014243  
7420.0  0.000111925674554  
7440.0  0.00011177145984  
7460.0  0.000101481429386  
7480.0  9.0379277468e-05  
