3020.0  0.0  
3040.0  1.37520202513e-07  
3060.0  5.64129972681e-07  
3080.0  1.445730368e-06  
3100.0  3.43731459806e-06  
3120.0  7.76914885834e-06  
3140.0  1.88157478013e-05  
3160.0  4.24234140557e-05  
3180.0  8.66444259758e-05  
3200.0  0.000158353537054  
3220.0  0.000270101470805  
3240.0  0.000470671083426  
3260.0  0.000936459826321  
3280.0  0.00227375157261  
3300.0  0.00580954697937  
3320.0  0.0130993178561  
3340.0  0.02475946572  
3360.0  0.0394621807812  
3380.0  0.0539293994911  
3400.0  0.0658148360353  
3420.0  0.0747324398389  
3440.0  0.0824948334485  
3460.0  0.0918381811532  
3480.0  0.103706076808  
3500.0  0.116560596933  
3520.0  0.128727955698  
3540.0  0.138612411493  
3560.0  0.145551147024  
3580.0  0.149547606289  
3600.0  0.1525984679  
3620.0  0.160455149573  
3640.0  0.169770875221  
3660.0  0.176253813237  
3680.0  0.178517489415  
3700.0  0.176321821809  
3720.0  0.174006854414  
3740.0  0.175561473863  
3760.0  0.183050838385  
3780.0  0.198762379281  
3800.0  0.222231435051  
3820.0  0.247669210148  
3840.0  0.272478804072  
3860.0  0.29032277728  
3880.0  0.299621144794  
3900.0  0.303598869191  
3920.0  0.306187400678  
3940.0  0.314145097679  
3960.0  0.326924100509  
3980.0  0.340747766364  
4000.0  0.351101231411  
4020.0  0.355302420384  
4040.0  0.351351535406  
4060.0  0.334858149609  
4080.0  0.301255664847  
4100.0  0.250375495942  
4120.0  0.188348386464  
4140.0  0.127751642136  
4160.0  0.0789508555091  
4180.0  0.0459630936918  
4200.0  0.0264787336553  
4220.0  0.0157521095206  
4240.0  0.00979843574073  
4260.0  0.00636685713464  
4280.0  0.00433574021296  
4300.0  0.00309474821887  
4320.0  0.00230211944258  
4340.0  0.00180444578363  
4360.0  0.00146307323363  
4380.0  0.00122627451304  
4400.0  0.0010506081171  
4420.0  0.000927678012589  
4440.0  0.000839840098028  
4460.0  0.000760499931491  
4480.0  0.000708199919845  
